{
    "version": "https://jsonfeed.org/version/1",
    "title": "Consortium for Global Sustainability (CGS)",
    "description": "",
    "home_page_url": "https://the-consortium.net",
    "feed_url": "https://the-consortium.net/feed.json",
    "user_comment": "",
    "icon": "https://the-consortium.net/media/website/CGS-logo-updated-72X72.jpg",
    "author": {
        "name": "pp"
    },
    "items": [
        {
            "id": "https://the-consortium.net/2024-global-esg-conference-2024-gec.html",
            "url": "https://the-consortium.net/2024-global-esg-conference-2024-gec.html",
            "title": "2024 Global ESG Conference",
            "summary": "Date : May 27~29, 2024 Venue : Maison GLAD Hotel in Jeju, South Korea Hosts : - Jeju Development Center - Consortium for Global Sustainability (CGS) Sponsors : - Korea Tourism&hellip;",
            "content_html": "<figure class=\"post__image\"><img loading=\"lazy\"  src=\"https://the-consortium.net/media/posts/23/2024-Global-ESG-Conference-2-3.png\" alt=\"\" width=\"2560\" height=\"1193\" sizes=\"(max-width: 1024px) 100vw, 1024px\" srcset=\"https://the-consortium.net/media/posts/23/responsive/2024-Global-ESG-Conference-2-3-xs.png 300w ,https://the-consortium.net/media/posts/23/responsive/2024-Global-ESG-Conference-2-3-sm.png 480w ,https://the-consortium.net/media/posts/23/responsive/2024-Global-ESG-Conference-2-3-md.png 768w ,https://the-consortium.net/media/posts/23/responsive/2024-Global-ESG-Conference-2-3-lg.png 1024w\"></figure>\n<p><strong>Date : </strong>May 27~29, 2024<br><strong>Venue : </strong>Maison GLAD Hotel in Jeju, South Korea<br><strong>Hosts : </strong><br>- <a href=\"https://english.jdcenter.com/\" target=\"_blank\" rel=\"noopener noreferrer\">Jeju Development Center</a> <br>- <a href=\"https://the-consortium.net\" target=\"_blank\" rel=\"noopener noreferrer\">Consortium for Global Sustainability (CGS)</a><br><strong>Sponsors : </strong><br>- <a href=\"http://www.ktra.or.kr/\" target=\"_blank\" rel=\"noopener noreferrer\">Korea Tourism Research Association</a><br>- <a href=\"https://www.uh.edu/hilton-college/\" target=\"_blank\" rel=\"noopener noreferrer\">Conrad N. Hilton College of Global Hospitality Leadership. University of Houston</a><br>- <a href=\"https://www.polyu.edu.hk/shtm/\" target=\"_blank\" rel=\"noopener noreferrer\">School of Hotel and Tourism Management, The Hong Kong Polytech University</a><br>- <a href=\"https://str.com\" target=\"_blank\" rel=\"noopener noreferrer\">STR</a><br><strong>Details :</strong> <a href=\"https://the-consortium.net/media/files/2024 ESG Conference Flyer.pdf\" target=\"_blank\" rel=\"noopener noreferrer\">2024 ESG Conference Flyer.pdf</a></p>\n<p>Dear CGS Members, </p>\n<p>As our first news of the year, we are excited to share that the \"2024 Global ESG Conference (2024 GEC)\" will be held at the Maison GLAD Hotel in Jeju, South Korea on May 27<sup>th</sup> - 29th. </p>\n<p>We would like to invite you to participate in the conference by making a presentation on a topic related to the general theme of ESG. You might consider the following topics/issues in preparing your proposal: </p>\n<ul>\n<li>ESG scale development </li>\n<li>Financial performance and ESG </li>\n<li>ESG reporting </li>\n<li>Internal marketing for ESG practices </li>\n<li>Environmental issues and ESG </li>\n<li>Technology advancement and ESG </li>\n<li>Accessible tourism and destination marketing </li>\n</ul>\n<p><strong>Participants may give presentations in the following formats:</strong></p>\n<ul>\n<li>15-minute stand-up presentation</li>\n<li>3-minute- Power Talk (3MPT) presentation</li>\n<li>ESG Idea Innovation Challenge -  Undergraduate Students ESG Idea Competition</li>\n<li>ESG Research Proposal Challenge -  Graduate Students ESG Research Proposal Competition</li>\n</ul>\n<p><strong>Please submit following the guidelines below: </strong></p>\n<ul>\n<li>Stand-up presentation and 3-minute Power Talk presentation</li>\n</ul>\n<ul>\n<li style=\"list-style-type: none;\">\n<ul>\n<li>MS Word format (Times New Roman Font, size 12, and double-spaced) </li>\n<li>Word limit: should not exceed 1,500 words (not including references and tables)</li>\n</ul>\n</li>\n</ul>\n<ul>\n<li>ESG Idea Innovation/Research Proposal Challenge</li>\n</ul>\n<ul>\n<li style=\"list-style-type: none;\">\n<ul>\n<li>15-20 PowerPoint slide decks (not including references) submitted in PDF format</li>\n</ul>\n</li>\n</ul>\n<ul>\n<li>Make submissions through EasyChair system: </li>\n</ul>\n<p><a href=\"https://easychair.org/conferences/?conf=2024gec\" data-saferedirecturl=\"https://www.google.com/url?q=https://easychair.org/conferences/?conf%3D2024gec&amp;source=gmail&amp;ust=1704849791747000&amp;usg=AOvVaw1zdWE7UL-ZpXLX7mHbZdvX\">https://easychair.org/conferences/?conf=2024gec</a></p>\n<p> </p>\n<p><strong>Registration fee (registration site to be shared soon): </strong></p>\n<ul>\n<li>Student: US$75</li>\n<li>Faculty/Industry/Government Participant: US$150</li>\n</ul>\n<p> </p>\n<p><strong>Conference Hotel Information</strong></p>\n<ul>\n<li>Maison GLAD Hotel (80 Noyeon-ro Jeju-shi Jeju-do, Jeju City, Jeju, S.Korea 690-723)</li>\n<li>Hotel website: <a href=\"http://www.glad-hotels.com/maisongladjeju/index.do\" data-saferedirecturl=\"https://www.google.com/url?q=http://www.glad-hotels.com/maisongladjeju/index.do&amp;source=gmail&amp;ust=1704849791747000&amp;usg=AOvVaw3VfXQDhYaM45mhyH0CUpUV\">www.glad-hotels.com/maisongladjeju/index.do</a></li>\n<li>Early-bird booking rate by <strong><em>Feb 15th</em>, 2024</strong>: 130,000 Korean Won per night (to include breakfast additional KRW35,000)</li>\n<li>To reserve a room, please fill in your information at the following link: <a href=\"https://forms.gle/aN6RQZSb7pMnzxP5A\" data-saferedirecturl=\"https://www.google.com/url?q=https://forms.gle/aN6RQZSb7pMnzxP5A&amp;source=gmail&amp;ust=1704849791747000&amp;usg=AOvVaw0vVf2NXVb_0HQYbUu6kBjC\">https://forms.gle/aN6RQZSb7pMnzxP5A</a></li>\n</ul>\n<p> </p>\n<p><strong>Important Dates: </strong></p>\n<ul>\n<li>Conference hotel early bird rate deadline: February 15th, 2024.</li>\n<li>Extended abstracts &amp; PowerPoint Slides submission deadline: March 10th, 2024 (by 11:59 p.m., Central Time, USA)</li>\n<li>Notification of acceptance: March 17th, 2024</li>\n<li>Registration deadline: March 31st, 2024. (At least one author should register for the conference by this date.)</li>\n</ul>\n<p> </p>\n<p>Lastly, we are seeking your <strong>sponsorship</strong> to make the conference successful. For the educational institution sponsorship - $1,500 includes the following benefits. </p>\n<ul>\n<li>Banner of your school logo on the official conference website</li>\n<li>A full-page advertisement in the conference program</li>\n<li>A space for setting up the marketing materials to recruit prospective students</li>\n<li>Three registration fee waivers for the conference from your organization</li>\n<li>Recognition during the opening and closing sessions</li>\n</ul>\n<p> </p>\n<p>For more detailed information and conference schedule, please refer to the attached PDF file. We look forward to seeing you all in Jeju and should you have any questions, please feel free to contact me at <a href=\"mailto:kback@uh.edu\">kback@uh.edu</a> or Dr. Minjung Shin at <a href=\"mailto:mshin4@uh.edu\">mshin4@uh.edu</a>.</p>",
            "author": {
                "name": "pp"
            },
            "tags": [
            ],
            "date_published": "2024-01-08T19:38:32-06:00",
            "date_modified": "2024-01-12T20:30:28-06:00"
        },
        {
            "id": "https://the-consortium.net/2023-global-esg-conference.html",
            "url": "https://the-consortium.net/2023-global-esg-conference.html",
            "title": "2023 Global ESG Conference",
            "summary": "Conference Report The 2023 ESG Conference was successfully held in Seoul, Korea, on May 31, 2023. The conference was co-hosted with the Korea Tourism Research Association (KTRA: Chaired by Dr.",
            "content_html": "<h1 class=\"align-center\"><br>Conference Report</h1>\n<p> </p>\n<p>The 2023 ESG Conference was successfully held in Seoul, Korea, on May 31, 2023.</p>\n<p>The conference was co-hosted with the Korea Tourism Research Association (KTRA: Chaired by Dr. Choong Ki Lee) and sponsored by numerous government agencies, universities, and private sectors.</p>\n<p>A total of 250 participants from 13 countries and regions, including the USA, Korea, Japan, Thailand, Switzerland, Brazil, Indonesia, Finland, Taiwan, China, Hong Kong, etc., to network and discuss the critical issues with ESG strategies.</p>\n<p>The conference started with the keynote speakers, Mr. Ramu Damodaran (former Chief Director of UN Academic Impact) and Dean Kaye Chon (Hong Kong Polytechnic University), followed by traditional Korean dance performances.</p>\n<p>We held five sessions:<br><span style=\"color: var(--text-primary-color); font-family: var(--editor-font-family); font-size: inherit; font-weight: var(--font-weight-normal);\">(1) ESG practices in tourism and hospitality; <br>(2) ESG strategies; <br>(3) ESG </span>and Customer relationships in tourism and hospitality; <br>(4) graduate student research; and <br>(5) ESG global student challenge.</p>\n<p>Specifically, 48 stand-up presentations (13 for the global session and 35 for the Korean session) and 31 poster presentations (9 for the global session and 22 for the Korean session) made the conference successful.</p>\n<p>Two ESG global student challenge winners are</p>\n<p>(1) The limitless ACCESS app for traveling disabled persons (DPs) presented by Kwanrutai Chawtai, Worapun Krueyos, and Chamongkhon Mangfuegphan from the Prince of Songkhlan University Phuket, Thailand and</p>\n<p>(2) Green Token: Connecting hotels and people presented by Cha Yoo Bin &amp; Ng Tin Yee from The Hong Kong Polytechnic University.</p>\n<p>At the end of the conference, Professor Kaye Chon, Professor Achim Schmitt, and Professor Ki-Joon Back conducted an expert panel discussion to challenge the stakeholders to develop and implement ESG practices. Besides, 12 industry sponsors promoted their ESG practices in a separate booth.</p>\n<p>We hope to have another successful conference next summer and meet many of you in person.</p>\n<div class=\"post__iframe\"><iframe loading=\"lazy\" width=\"800\" height=\"450\" src=\"https://www.youtube.com/embed/6Isepj35iKo\" title=\"2023 Global ESG Conference\" frameborder=\"0\" allow=\"accelerometer; autoplay; clipboard-write; encrypted-media; gyroscope; picture-in-picture; web-share\" allowfullscreen=\"allowfullscreen\"></iframe></div>\n<figure class=\"post__image post__image--center\"><img loading=\"lazy\"  src=\"https://the-consortium.net/media/posts/22/202305ESGKoreaconference-1.jpg\" alt=\"\" width=\"1024\" height=\"768\" sizes=\"(max-width: 1024px) 100vw, 1024px\" srcset=\"https://the-consortium.net/media/posts/22/responsive/202305ESGKoreaconference-1-xs.jpg 300w ,https://the-consortium.net/media/posts/22/responsive/202305ESGKoreaconference-1-sm.jpg 480w ,https://the-consortium.net/media/posts/22/responsive/202305ESGKoreaconference-1-md.jpg 768w ,https://the-consortium.net/media/posts/22/responsive/202305ESGKoreaconference-1-lg.jpg 1024w\"></figure>\n<figure class=\"post__image post__image--center\"><img loading=\"lazy\"  src=\"https://the-consortium.net/media/posts/22/202305ESGKoreaConference-2.jpg\" alt=\"\" width=\"1024\" height=\"1365\" sizes=\"(max-width: 1024px) 100vw, 1024px\" srcset=\"https://the-consortium.net/media/posts/22/responsive/202305ESGKoreaConference-2-xs.jpg 300w ,https://the-consortium.net/media/posts/22/responsive/202305ESGKoreaConference-2-sm.jpg 480w ,https://the-consortium.net/media/posts/22/responsive/202305ESGKoreaConference-2-md.jpg 768w ,https://the-consortium.net/media/posts/22/responsive/202305ESGKoreaConference-2-lg.jpg 1024w\"></figure>\n<figure class=\"post__image post__image--center\"><img loading=\"lazy\"  src=\"https://the-consortium.net/media/posts/22/202305ESGKoreaConference-3.jpg\" alt=\"\" width=\"1024\" height=\"773\" sizes=\"(max-width: 1024px) 100vw, 1024px\" srcset=\"https://the-consortium.net/media/posts/22/responsive/202305ESGKoreaConference-3-xs.jpg 300w ,https://the-consortium.net/media/posts/22/responsive/202305ESGKoreaConference-3-sm.jpg 480w ,https://the-consortium.net/media/posts/22/responsive/202305ESGKoreaConference-3-md.jpg 768w ,https://the-consortium.net/media/posts/22/responsive/202305ESGKoreaConference-3-lg.jpg 1024w\"></figure>\n<p> </p>\n<hr>\n<h2>2023 Global ESG Conference</h2>\n<p>Date : May 31, 2023 (Wed)<br>Venue : COEX Conference Hall E<br>Host : <a href=\"http://ktra.or.kr\" target=\"_blank\" rel=\"noopener noreferrer\">Korean Tourism Research Association</a>, <a href=\"https://the-consortium.net\" target=\"_blank\" rel=\"noopener noreferrer\">Consortium for Global Sustainability (CGS)</a><br>Sponsor : The Korean Economic Daily</p>\n<figure class=\"post__image post__image--center\"><a href=\"https://2023gec.com\"><img loading=\"lazy\"  src=\"https://the-consortium.net/media/posts/22/GEC2023Banner-2.png\" alt=\"2023 Global ESG Conference\" width=\"1437\" height=\"818\" sizes=\"(max-width: 1024px) 100vw, 1024px\" srcset=\"https://the-consortium.net/media/posts/22/responsive/GEC2023Banner-2-xs.png 300w ,https://the-consortium.net/media/posts/22/responsive/GEC2023Banner-2-sm.png 480w ,https://the-consortium.net/media/posts/22/responsive/GEC2023Banner-2-md.png 768w ,https://the-consortium.net/media/posts/22/responsive/GEC2023Banner-2-lg.png 1024w\"></figure></a></p>\n<p> </p>",
            "author": {
                "name": "pp"
            },
            "tags": [
            ],
            "date_published": "2023-03-22T21:11:16-05:00",
            "date_modified": "2023-08-06T23:01:47-05:00"
        },
        {
            "id": "https://the-consortium.net/2022-paper-of-the-year-lessbrgreaterjourna-of-hospitlity-and-tourism-technology.html",
            "url": "https://the-consortium.net/2022-paper-of-the-year-lessbrgreaterjourna-of-hospitlity-and-tourism-technology.html",
            "title": "2022 Paper of the Year",
            "summary": "The Journal of Hospitality and Tourism Technology awarded its 2022 Paper of the Year to Drs. Minwoo Lee, Minjung Shin and Ki-Joon Back. Their former Ph.D. students, Jiseon Ahn and&hellip;",
            "content_html": "<h4><em>The Journal of Hospitality and Tourism Technology awarded its 2022 Paper of the Year to <a href=\"https://the-consortium.net/members-ii-2.html#MWL\" target=\"_blank\" rel=\"noopener noreferrer\">Drs. Minwoo Lee</a>, <a href=\"https://the-consortium.net/members-ii-2.html#MJS\" target=\"_blank\" rel=\"noopener noreferrer\">Minjung Shin</a> and <a href=\"https://the-consortium.net/members-ii-2.html#KJB\" target=\"_blank\" rel=\"noopener noreferrer\">Ki-Joon Back</a>. Their former Ph.D. students, <a href=\"https://the-consortium.net/members-ii-2.html#JSA\" target=\"_blank\" rel=\"noopener noreferrer\">Jiseon Ahn</a> and Wooseok Kwon, also contributed to this winning paper titled “Integrating technology to service innovation: Key issues and future research directions in hospitality and tourism.\"</em></h4>\n<div> </div>\n<h4><em>Integrating technology to service innovation: Key issues and future research directions in hospitality and tourism </em></h4>\n<div> </div>\n<div>ISSN: 1757-9880</div>\n<div>Author : <a href=\"https://the-consortium.net/members-ii-2.html#MWL\" target=\"_blank\" rel=\"noopener noreferrer\">Minwoo Lee</a>, <a href=\"https://the-consortium.net/members-ii-2.html#JSA\" target=\"_blank\" rel=\"noopener noreferrer\">Jiseon Ahn</a>, <a href=\"https://the-consortium.net/members-ii-2.html#MJS\" target=\"_blank\" rel=\"noopener noreferrer\">Minjung Shin</a>, Wooseok Kwon, <a href=\"https://the-consortium.net/members-ii-2.html#KJB\" target=\"_blank\" rel=\"noopener noreferrer\">Ki-Joon Back</a></div>\n<div>Article publication date: 9 October 2019</div>\n<div>Issue publication date: 8 April 2021</div>\n<div> </div>\n<h3>Abstract</h3>\n<div> </div>\n<h4>Purpose</h4>\n<div> </div>\n<div>This study aims to provide an understanding of the concept of service innovation resulting from emerging technologies and suggest areas for future hospitality and tourism research. By thoroughly reviewing previous literature, this study provides the basis for improving customer service with service innovation.</div>\n<div> </div>\n<h4>Design/methodology/approach</h4>\n<div> </div>\n<div>This study examines the existing body of knowledge from leading hospitality, tourism and business journals by performing content analysis.</div>\n<div> </div>\n<h4>Findings</h4>\n<div> </div>\n<div>This study reveals the multifaceted aspects of service innovation practices using emerging technologies. Findings provide an evidence base to future studies by highlighting the role of technology in hospitality and tourism service innovation.</div>\n<div> </div>\n<h4>Originality/value</h4>\n<div> </div>\n<div>The major contribution of this study is the demonstration of an approach for both academic researchers and service providers how they can use the technology to improve customers’ perceived value, experience and engagement.</div>",
            "author": {
                "name": "pp"
            },
            "tags": [
                   "Member News"
            ],
            "date_published": "2022-01-15T15:45:09-06:00",
            "date_modified": "2022-02-01T18:36:16-06:00"
        },
        {
            "id": "https://the-consortium.net/industry-news-a-3.html",
            "url": "https://the-consortium.net/industry-news-a-3.html",
            "title": "Industry News Blah Blah",
            "summary": "Where does it come from? Contrary to popular belief, Lorem Ipsum is not simply random text. It has roots in a piece of classical Latin literature from 45 BC, making&hellip;",
            "content_html": "<h2>Where does it come from?</h2>\n<p>Contrary to popular belief, Lorem Ipsum is not simply random text. It has roots in a piece of classical Latin literature from 45 BC, making it over 2000 years old. Richard McClintock, a Latin professor at Hampden-Sydney College in Virginia, looked up one of the more obscure Latin words, consectetur, from a Lorem Ipsum passage, and going through the cites of the word in classical literature, discovered the undoubtable source. Lorem Ipsum comes from sections 1.10.32 and 1.10.33 of \"de Finibus Bonorum et Malorum\" (The Extremes of Good and Evil) by Cicero, written in 45 BC. This book is a treatise on the theory of ethics, very popular during the Renaissance. The first line of Lorem Ipsum, \"Lorem ipsum dolor sit amet..\", comes from a line in section 1.10.32.</p>",
            "author": {
                "name": "pp"
            },
            "tags": [
                   "Industry News"
            ],
            "date_published": "2022-01-14T17:19:25-06:00",
            "date_modified": "2022-01-14T17:19:25-06:00"
        },
        {
            "id": "https://the-consortium.net/industry-news-a-2.html",
            "url": "https://the-consortium.net/industry-news-a-2.html",
            "title": "Industry News B",
            "summary": "Where does it come from? Contrary to popular belief, Lorem Ipsum is not simply random text. It has roots in a piece of classical Latin literature from 45 BC, making&hellip;",
            "content_html": "<h2>Where does it come from?</h2>\n<p>Contrary to popular belief, Lorem Ipsum is not simply random text. It has roots in a piece of classical Latin literature from 45 BC, making it over 2000 years old. Richard McClintock, a Latin professor at Hampden-Sydney College in Virginia, looked up one of the more obscure Latin words, consectetur, from a Lorem Ipsum passage, and going through the cites of the word in classical literature, discovered the undoubtable source. Lorem Ipsum comes from sections 1.10.32 and 1.10.33 of \"de Finibus Bonorum et Malorum\" (The Extremes of Good and Evil) by Cicero, written in 45 BC. This book is a treatise on the theory of ethics, very popular during the Renaissance. The first line of Lorem Ipsum, \"Lorem ipsum dolor sit amet..\", comes from a line in section 1.10.32.</p>",
            "author": {
                "name": "pp"
            },
            "tags": [
                   "Industry News"
            ],
            "date_published": "2022-01-14T17:19:02-06:00",
            "date_modified": "2022-01-14T17:19:02-06:00"
        },
        {
            "id": "https://the-consortium.net/industry-news-a.html",
            "url": "https://the-consortium.net/industry-news-a.html",
            "title": "Industry News A",
            "summary": "Where does it come from? Contrary to popular belief, Lorem Ipsum is not simply random text. It has roots in a piece of classical Latin literature from 45 BC, making&hellip;",
            "content_html": "<h2>Where does it come from?</h2>\n<p>Contrary to popular belief, Lorem Ipsum is not simply random text. It has roots in a piece of classical Latin literature from 45 BC, making it over 2000 years old. Richard McClintock, a Latin professor at Hampden-Sydney College in Virginia, looked up one of the more obscure Latin words, consectetur, from a Lorem Ipsum passage, and going through the cites of the word in classical literature, discovered the undoubtable source. Lorem Ipsum comes from sections 1.10.32 and 1.10.33 of \"de Finibus Bonorum et Malorum\" (The Extremes of Good and Evil) by Cicero, written in 45 BC. This book is a treatise on the theory of ethics, very popular during the Renaissance. The first line of Lorem Ipsum, \"Lorem ipsum dolor sit amet..\", comes from a line in section 1.10.32.</p>",
            "author": {
                "name": "pp"
            },
            "tags": [
                   "Industry News"
            ],
            "date_published": "2022-01-14T17:18:44-06:00",
            "date_modified": "2022-01-14T17:18:44-06:00"
        },
        {
            "id": "https://the-consortium.net/members-ii-2.html",
            "url": "https://the-consortium.net/members-ii-2.html",
            "title": "Members",
            "summary": "Billy Bai billy.bai@unlv.edu Professor and Associate Dean University of Nevada Las Vegas William F. Harrah College of Hospitality Professor and Burke-Campbell Faculty Fellow Kansas State University College of Business Administration&hellip;",
            "content_html": "<p> </p>\n<table style=\"border-collapse: collapse; width: 100%; border-style: none;\" border=\"0\">\n<tbody>\n<tr style=\"height: 396px;\">\n<td id=\"JSA\" style=\"width: 34.5537%; height: 396px; vertical-align: top;\"><span style=\"color: #3d464e;\"> <span style=\"font-size: 18.4px;\"> <a href=\"https://the-consortium.net/media/files/CVCGS-Jiseon-Ahn.pdf\"> <figure class=\"post__image\"><img loading=\"lazy\"  src=\"https://the-consortium.net/media/posts/14/Jiseon-Ahn-2.jpg\" alt=\"\" width=\"600\" height=\"801\" sizes=\"(max-width: 1024px) 100vw, 1024px\" srcset=\"https://the-consortium.net/media/posts/14/responsive/Jiseon-Ahn-2-xs.jpg 300w ,https://the-consortium.net/media/posts/14/responsive/Jiseon-Ahn-2-sm.jpg 480w ,https://the-consortium.net/media/posts/14/responsive/Jiseon-Ahn-2-md.jpg 768w ,https://the-consortium.net/media/posts/14/responsive/Jiseon-Ahn-2-lg.jpg 1024w\"></figure></a></span></span></td>\n<td style=\"width: 43.4449%; height: 396px;\">\n<div><span style=\"font-size: 28.4px;\">Jiseon Ahn</span></div>\n<div><span style=\"color: #3d464e;\"><a href=\"mailto:jsahn@hanyang.ac.kr\">jsahn@hanyang.ac.kr</a></span></div>\n<div><span style=\"font-size: 18.4px;\"> </span></div>\n<div><span style=\"font-size: 18.4px;\">Assistant Professor</span></div>\n<div><span style=\"font-size: 18.4px;\">Hanyang University</span></div>\n<div><span style=\"font-size: 18.4px;\">School of Business</span></div>\n</td>\n</tr>\n<tr style=\"height: 50px;\">\n<td style=\"width: 34.5537%; height: 50px; vertical-align: top;\"><span style=\"color: #3d464e;\"> <span style=\"font-size: 18.4px;\"><a href=\"https://the-consortium.net/media/files/CVCGS-Monica-Alatorre.pdf\"><figure class=\"post__image\"><img loading=\"lazy\"  src=\"https://the-consortium.net/media/posts/14/Monica_Alatorre-2.jpg\" alt=\"\" width=\"600\" height=\"600\" sizes=\"(max-width: 1024px) 100vw, 1024px\" srcset=\"https://the-consortium.net/media/posts/14/responsive/Monica_Alatorre-2-xs.jpg 300w ,https://the-consortium.net/media/posts/14/responsive/Monica_Alatorre-2-sm.jpg 480w ,https://the-consortium.net/media/posts/14/responsive/Monica_Alatorre-2-md.jpg 768w ,https://the-consortium.net/media/posts/14/responsive/Monica_Alatorre-2-lg.jpg 1024w\"></figure></a><br></span></span></td>\n<td style=\"width: 43.4449%; height: 50px;\">\n<div><span style=\"font-size: 28.4px;\">Monica Alatorre</span></div>\n<div><span style=\"color: #3d464e;\"><a href=\"mailto:monica.alatorre@udla.edu.ec\">monica.alatorre@udla.edu.ec</a></span></div>\n<div><span style=\"font-size: 18.4px;\"> </span></div>\n<div><span style=\"font-size: 18.4px;\">Dean and Professor</span></div>\n<div><span style=\"font-size: 18.4px;\">UDLA, School of Hospitality and Tourism</span></div>\n</td>\n</tr>\n<tr style=\"height: 50px;\">\n<td id=\"KJB\" style=\"width: 34.5537%; height: 50px; vertical-align: top;\"><span style=\"color: #3d464e;\"><span style=\"font-size: 18.4px;\"><a href=\"https://the-consortium.net/media/files/CVCGS-Ki-Joon-Back.pdf\"><figure class=\"post__image\"><img loading=\"lazy\"  src=\"https://the-consortium.net/media/posts/14/Kijoon-Back.jpg\" alt=\"\" width=\"600\" height=\"400\" sizes=\"(max-width: 1024px) 100vw, 1024px\" srcset=\"https://the-consortium.net/media/posts/14/responsive/Kijoon-Back-xs.jpg 300w ,https://the-consortium.net/media/posts/14/responsive/Kijoon-Back-sm.jpg 480w ,https://the-consortium.net/media/posts/14/responsive/Kijoon-Back-md.jpg 768w ,https://the-consortium.net/media/posts/14/responsive/Kijoon-Back-lg.jpg 1024w\"></figure></a><br></span></span></td>\n<td style=\"width: 43.4449%; height: 50px;\">\n<div><span style=\"font-size: 28.4px;\">Ki-Joon Back</span></div>\n<div><span style=\"color: #3d464e;\"><a href=\"mailto:kback@uh.edu\">kback@uh.edu</a><a href=\"mailto:kback@uh.edu\"></a></span></div>\n<div><span style=\"font-size: 18.4px;\"> </span></div>\n<div><span style=\"font-size: 18.4px;\">Professor and Associate Dean</span></div>\n<div><span style=\"font-size: 18.4px;\">University of Houston</span></div>\n<div><span style=\"font-size: 18.4px;\">Conrad N. Hilton College of</span></div>\n<div><span style=\"font-size: 18.4px;\">Hotel and Restaurant Management</span></div>\n</td>\n</tr>\n<tr style=\"height: 50px;\">\n<td style=\"width: 34.5537%; height: 50px; vertical-align: top;\"><span style=\"color: #3d464e;\"><span style=\"font-size: 18.4px;\"><a href=\"https://the-consortium.net/media/files/CVCGS-Billy-Bai.pdf\"><figure class=\"post__image\"><img loading=\"lazy\"  src=\"https://the-consortium.net/media/posts/14/Billy-Bai-Wenbo-Bai-2.jpg\" alt=\"\" width=\"600\" height=\"1000\" sizes=\"(max-width: 1024px) 100vw, 1024px\" srcset=\"https://the-consortium.net/media/posts/14/responsive/Billy-Bai-Wenbo-Bai-2-xs.jpg 300w ,https://the-consortium.net/media/posts/14/responsive/Billy-Bai-Wenbo-Bai-2-sm.jpg 480w ,https://the-consortium.net/media/posts/14/responsive/Billy-Bai-Wenbo-Bai-2-md.jpg 768w ,https://the-consortium.net/media/posts/14/responsive/Billy-Bai-Wenbo-Bai-2-lg.jpg 1024w\"></figure></a><br></span></span></td>\n<td style=\"width: 43.4449%; height: 50px;\">\n<p><span style=\"font-size: 28.4px;\">Billy Bai<br></span><span style=\"font-size: 18.4px;\"><a href=\"mailto:billy.bai@unlv.edu\">billy.bai@unlv.edu</a></span></p>\n<p><span style=\"font-size: 18.4px;\">Professor and Associate Dean<br>University of Nevada Las Vegas<br>William F. Harrah College of Hospitality</span></p>\n</td>\n</tr>\n<tr style=\"height: 50px;\">\n<td style=\"width: 34.5537%; height: 50px;\"><span style=\"color: #3d464e;\"><span style=\"font-size: 18.4px;\"><a href=\"https://the-consortium.net/media/files/CVCGS-Petra-Barišić.pdf\"><figure class=\"post__image\"><img loading=\"lazy\"  src=\"https://the-consortium.net/media/posts/14/Petra-Barisic-2.jpg\" alt=\"\" width=\"600\" height=\"400\" sizes=\"(max-width: 1024px) 100vw, 1024px\" srcset=\"https://the-consortium.net/media/posts/14/responsive/Petra-Barisic-2-xs.jpg 300w ,https://the-consortium.net/media/posts/14/responsive/Petra-Barisic-2-sm.jpg 480w ,https://the-consortium.net/media/posts/14/responsive/Petra-Barisic-2-md.jpg 768w ,https://the-consortium.net/media/posts/14/responsive/Petra-Barisic-2-lg.jpg 1024w\"></figure></a><br></span></span></td>\n<td style=\"width: 43.4449%; height: 50px;\">\n<div><span style=\"font-size: 28.4px;\">Petra Barišić</span></div>\n<div><span style=\"color: #3d464e;\"><a href=\"mailto:petra.barisic@net.efzg.hr\">petra.barisic@net.efzg.hr</a><a href=\"mailto:petra.barisic@net.efzg.hr\"></a></span></div>\n<div><span style=\"font-size: 18.4px;\"> </span></div>\n<div><span style=\"font-size: 18.4px;\">Assistant Professor</span></div>\n<div><span style=\"font-size: 18.4px;\">University of Zagreb</span></div>\n<div><span style=\"font-size: 18.4px;\">Faculty of Economics &amp; Business</span></div>\n<div><span style=\"font-size: 18.4px;\">Department of Tourism</span></div>\n</td>\n</tr>\n<tr style=\"height: 50px;\">\n<td style=\"width: 34.5537%; height: 50px;\"><span style=\"font-size: 18.4px;\"> <a href=\"https://the-consortium.net/media/files/CVCGS-John-Bowen.pdf\"><figure class=\"post__image\"><img loading=\"lazy\"  src=\"https://the-consortium.net/media/posts/14/John-Bowen-2.jpg\" alt=\"\" width=\"600\" height=\"750\" sizes=\"(max-width: 1024px) 100vw, 1024px\" srcset=\"https://the-consortium.net/media/posts/14/responsive/John-Bowen-2-xs.jpg 300w ,https://the-consortium.net/media/posts/14/responsive/John-Bowen-2-sm.jpg 480w ,https://the-consortium.net/media/posts/14/responsive/John-Bowen-2-md.jpg 768w ,https://the-consortium.net/media/posts/14/responsive/John-Bowen-2-lg.jpg 1024w\"></figure></a></span></td>\n<td style=\"width: 43.4449%; height: 50px;\">\n<div><span style=\"font-size: 28.4px;\">[Advisor]</span></div>\n<div><span style=\"font-size: 28.4px;\">John Bowen</span></div>\n<div><span style=\"color: #3d464e;\"><a href=\"mailto:jbowen@uh.edu\">jbowen@uh.edu</a><a href=\"mailto:jbowen@uh.edu\"></a></span></div>\n<div><span style=\"font-size: 18.4px;\"> </span></div>\n<div><span style=\"font-size: 18.4px;\">Professor Emeritus</span></div>\n<div><span style=\"font-size: 18.4px;\">University of Houston</span></div>\n<div><span style=\"font-size: 18.4px;\">Conrad N. Hilton College of</span></div>\n<div><span style=\"font-size: 18.4px;\">Hotel and Restaurant Management</span></div>\n</td>\n</tr>\n<tr style=\"height: 50px;\">\n<td style=\"width: 34.5537%; height: 50px;\"><span style=\"font-size: 18.4px;\"> <a href=\"https://the-consortium.net/media/files/CVCGS-Kaye-Chon.pdf\"><figure class=\"post__image\"><img loading=\"lazy\"  src=\"https://the-consortium.net/media/posts/14/Kaye-Chon-2.jpg\" alt=\"\" width=\"600\" height=\"961\" sizes=\"(max-width: 1024px) 100vw, 1024px\" srcset=\"https://the-consortium.net/media/posts/14/responsive/Kaye-Chon-2-xs.jpg 300w ,https://the-consortium.net/media/posts/14/responsive/Kaye-Chon-2-sm.jpg 480w ,https://the-consortium.net/media/posts/14/responsive/Kaye-Chon-2-md.jpg 768w ,https://the-consortium.net/media/posts/14/responsive/Kaye-Chon-2-lg.jpg 1024w\"></figure></a></span></td>\n<td style=\"width: 43.4449%; height: 50px;\">\n<div><span style=\"font-size: 28.4px;\">[Advisor]</span></div>\n<div><span style=\"font-size: 28.4px;\">Kaye Chon</span></div>\n<div><span style=\"color: #3d464e;\"><a href=\"mailto:kaye.chon@polyu.edu.hk\" style=\"font-size: 18.4px;\">kaye.chon@polyu.edu.hk</a></span></div>\n<div><span style=\"font-size: 18.4px;\"> </span></div>\n<div><span style=\"font-size: 18.4px;\">Dean and Walter &amp; Wendy Kwok Family Foundation Professor</span></div>\n<div><span style=\"font-size: 18.4px;\">The Hong Kong Polytechnic University </span></div>\n</td>\n</tr>\n<tr>\n<td style=\"width: 34.5537%;\"><span style=\"font-size: 18.4px;\"><figure class=\"post__image\"><img loading=\"lazy\"  src=\"https://the-consortium.net/media/posts/14/Ramu-Damodaran.jpeg\" alt=\"\" width=\"600\" height=\"1000\" sizes=\"(max-width: 1024px) 100vw, 1024px\" srcset=\"https://the-consortium.net/media/posts/14/responsive/Ramu-Damodaran-xs.jpeg 300w ,https://the-consortium.net/media/posts/14/responsive/Ramu-Damodaran-sm.jpeg 480w ,https://the-consortium.net/media/posts/14/responsive/Ramu-Damodaran-md.jpeg 768w ,https://the-consortium.net/media/posts/14/responsive/Ramu-Damodaran-lg.jpeg 1024w\"></figure><br></span></td>\n<td style=\"width: 43.4449%;\">\n<div><span style=\"font-size: 28.4px;\">[Advisor]</span></div>\n<div><span style=\"font-size: 28.4px;\">Ramu Damodaran</span></div>\n<div><a href=\"mailto:rdamodaran@upeace.org\">rdamodaran@upeace.org</a></div>\n<div> </div>\n<div>University for Peace</div>\n<div>San Jose, Costa Rica</div>\n</td>\n</tr>\n<tr style=\"height: 50px;\">\n<td style=\"width: 34.5537%; height: 50px;\"><span style=\"font-size: 18.4px;\"> <a href=\"https://the-consortium.net/media/files/CVCGS-Jiho-Han.pdf\"><figure class=\"post__image\"><img loading=\"lazy\"  src=\"https://the-consortium.net/media/posts/14/Jiho-Han-2.jpg\" alt=\"\" width=\"600\" height=\"798\" sizes=\"(max-width: 1024px) 100vw, 1024px\" srcset=\"https://the-consortium.net/media/posts/14/responsive/Jiho-Han-2-xs.jpg 300w ,https://the-consortium.net/media/posts/14/responsive/Jiho-Han-2-sm.jpg 480w ,https://the-consortium.net/media/posts/14/responsive/Jiho-Han-2-md.jpg 768w ,https://the-consortium.net/media/posts/14/responsive/Jiho-Han-2-lg.jpg 1024w\"></figure></a></span></td>\n<td style=\"width: 43.4449%; height: 50px;\">\n<div><span style=\"font-size: 28.4px;\">Jiho Han</span></div>\n<div><span style=\"color: #3d464e;\"><a href=\"mailto:hanjiho@rikkyo.ac.jp\" style=\"font-size: 18.4px;\">hanjiho@rikkyo.ac.jp</a></span></div>\n<div><span style=\"font-size: 18.4px;\"> </span></div>\n<div><span style=\"font-size: 18.4px;\">Professor</span></div>\n<div><span style=\"font-size: 18.4px;\">Rikkyo University</span></div>\n<div><span style=\"font-size: 18.4px;\">College of Tourism</span></div>\n</td>\n</tr>\n<tr style=\"height: 50px;\">\n<td style=\"width: 34.5537%; height: 50px;\"><span style=\"font-size: 18.4px;\"> <a href=\"https://the-consortium.net/media/files/CVCGS-Jaewook-Kim.pdf\"><figure class=\"post__image\"><img loading=\"lazy\"  src=\"https://the-consortium.net/media/posts/14/Jaewook-Kim-2.jpg\" alt=\"\" width=\"600\" height=\"750\" sizes=\"(max-width: 1024px) 100vw, 1024px\" srcset=\"https://the-consortium.net/media/posts/14/responsive/Jaewook-Kim-2-xs.jpg 300w ,https://the-consortium.net/media/posts/14/responsive/Jaewook-Kim-2-sm.jpg 480w ,https://the-consortium.net/media/posts/14/responsive/Jaewook-Kim-2-md.jpg 768w ,https://the-consortium.net/media/posts/14/responsive/Jaewook-Kim-2-lg.jpg 1024w\"></figure></a></span></td>\n<td style=\"width: 43.4449%; height: 50px;\">\n<div><span style=\"font-size: 28.4px;\">Jaewook Kim</span></div>\n<div><span style=\"color: #3d464e;\"><a href=\"mailto:jkim65@uh.edu\" style=\"font-size: 18.4px;\">jkim65@uh.edu</a></span></div>\n<div><span style=\"font-size: 18.4px;\"> </span></div>\n<div><span style=\"font-size: 18.4px;\">Assistant Professor</span></div>\n<div><span style=\"font-size: 18.4px;\">University of Houston</span></div>\n<div><span style=\"font-size: 18.4px;\">Conrad N. Hilton College of</span></div>\n<div><span style=\"font-size: 18.4px;\">Hotel and Restaurant Management</span></div>\n</td>\n</tr>\n<tr style=\"height: 50px;\">\n<td style=\"width: 34.5537%; height: 50px;\"><span style=\"font-size: 18.4px;\"> <a href=\"https://the-consortium.net/media/files/CVCGS-Jinwon-Kim.pdf\"><figure class=\"post__image\"><img loading=\"lazy\"  src=\"https://the-consortium.net/media/posts/14/Jinwon-Kim-2.jpg\" alt=\"\" width=\"600\" height=\"800\" sizes=\"(max-width: 1024px) 100vw, 1024px\" srcset=\"https://the-consortium.net/media/posts/14/responsive/Jinwon-Kim-2-xs.jpg 300w ,https://the-consortium.net/media/posts/14/responsive/Jinwon-Kim-2-sm.jpg 480w ,https://the-consortium.net/media/posts/14/responsive/Jinwon-Kim-2-md.jpg 768w ,https://the-consortium.net/media/posts/14/responsive/Jinwon-Kim-2-lg.jpg 1024w\"></figure></a></span></td>\n<td style=\"width: 43.4449%; height: 50px;\">\n<div><span style=\"font-size: 28.4px;\">Jinwon Kim</span></div>\n<div><span style=\"color: #3d464e;\"><a href=\"mailto:jinwonkim@ufl.edu\" style=\"font-size: 18.4px;\">jinwonkim@ufl.edu</a></span></div>\n<div><span style=\"font-size: 18.4px;\"> </span></div>\n<div><span style=\"font-size: 18.4px;\">Assistant Professor and </span><span style=\"font-size: 18.4px;\">Interim Graduate Coordinator </span></div>\n<div><span style=\"font-size: 18.4px;\">University of Florida</span></div>\n<div><span style=\"font-size: 18.4px;\">Department of Tourism, </span><span style=\"font-size: 18.4px;\">Hospitality and Event Management</span></div>\n</td>\n</tr>\n<tr style=\"height: 167px;\">\n<td style=\"width: 34.5537%; height: 167px;\"><span style=\"font-size: 18.4px;\"><a href=\"https://the-consortium.net/media/files/CVCGS-Ksenia-Kirillova.pdf\"><figure class=\"post__image\"><img loading=\"lazy\"  src=\"https://the-consortium.net/media/posts/14/Ksenia-Kirillova.jpg\" alt=\"\" width=\"600\" height=\"628\" sizes=\"(max-width: 1024px) 100vw, 1024px\" srcset=\"https://the-consortium.net/media/posts/14/responsive/Ksenia-Kirillova-xs.jpg 300w ,https://the-consortium.net/media/posts/14/responsive/Ksenia-Kirillova-sm.jpg 480w ,https://the-consortium.net/media/posts/14/responsive/Ksenia-Kirillova-md.jpg 768w ,https://the-consortium.net/media/posts/14/responsive/Ksenia-Kirillova-lg.jpg 1024w\"></figure></a><br></span></td>\n<td style=\"width: 43.4449%; height: 167px;\">\n<div><span style=\"font-size: 28.4px;\">Ksenia Kirillova</span></div>\n<div><span style=\"color: #3d464e;\"><a href=\"mailto:ksenia.kirillova@institutpaulbocuse.com\" style=\"font-size: 18.4px;\">ksenia.kirillova@institutpaulbocuse.com</a></span></div>\n<div><span style=\"font-size: 18.4px;\"> </span></div>\n<div><span style=\"font-size: 18.4px;\">Associate Professor</span></div>\n<div><span style=\"font-size: 18.4px;\">Institut Paul Bocuse</span></div>\n</td>\n</tr>\n<tr style=\"height: 196px;\">\n<td style=\"width: 34.5537%; height: 196px;\"><span style=\"font-size: 18.4px;\"><a href=\"https://the-consortium.net/media/files/CVCGS-Yoon-Koh.pdf\"><figure class=\"post__image\"><img loading=\"lazy\"  src=\"https://the-consortium.net/media/posts/14/Yoon-Koh-2.jpg\" alt=\"\" width=\"600\" height=\"750\" sizes=\"(max-width: 1024px) 100vw, 1024px\" srcset=\"https://the-consortium.net/media/posts/14/responsive/Yoon-Koh-2-xs.jpg 300w ,https://the-consortium.net/media/posts/14/responsive/Yoon-Koh-2-sm.jpg 480w ,https://the-consortium.net/media/posts/14/responsive/Yoon-Koh-2-md.jpg 768w ,https://the-consortium.net/media/posts/14/responsive/Yoon-Koh-2-lg.jpg 1024w\"></figure></a><br></span></td>\n<td style=\"width: 43.4449%; height: 196px;\">\n<div><span style=\"font-size: 28.4px;\">Yoon Koh</span></div>\n<div><span style=\"color: #3d464e;\"><a href=\"mailto:ykoh@uh.edu\" style=\"font-size: 18.4px;\">ykoh@uh.edu</a></span></div>\n<div><span style=\"font-size: 18.4px;\"> </span></div>\n<div><span style=\"font-size: 18.4px;\">Associate Professor</span></div>\n<div><span style=\"font-size: 18.4px;\">University of Houston</span></div>\n<div><span style=\"font-size: 18.4px;\">Conrad N. Hilton College of</span></div>\n<div><span style=\"font-size: 18.4px;\">Hotel and Restaurant Management</span></div>\n</td>\n</tr>\n<tr style=\"height: 50px;\">\n<td style=\"width: 34.5537%; height: 50px;\"><span style=\"font-size: 18.4px;\"><a href=\"https://the-consortium.net/media/files/CVCGS-Choong-Ki-Lee.pdf\"><figure class=\"post__image\"><img loading=\"lazy\"  src=\"https://the-consortium.net/media/posts/14/Choong-Ki-Lee-Lee-2.jpg\" alt=\"\" width=\"600\" height=\"777\" sizes=\"(max-width: 1024px) 100vw, 1024px\" srcset=\"https://the-consortium.net/media/posts/14/responsive/Choong-Ki-Lee-Lee-2-xs.jpg 300w ,https://the-consortium.net/media/posts/14/responsive/Choong-Ki-Lee-Lee-2-sm.jpg 480w ,https://the-consortium.net/media/posts/14/responsive/Choong-Ki-Lee-Lee-2-md.jpg 768w ,https://the-consortium.net/media/posts/14/responsive/Choong-Ki-Lee-Lee-2-lg.jpg 1024w\"></figure></a><br></span></td>\n<td style=\"width: 43.4449%; height: 50px;\">\n<div><span style=\"font-size: 28.4px;\">Choong-Ki Lee</span></div>\n<div><span style=\"color: #3d464e;\"><a href=\"mailto:cklee@khu.ac.kr\" style=\"font-size: 18.4px;\">cklee@khu.ac.kr</a></span></div>\n<div><span style=\"font-size: 18.4px;\"> </span></div>\n<div><span style=\"font-size: 18.4px;\">Professor </span></div>\n<div><span style=\"font-size: 18.4px;\">Kyung Hee University</span></div>\n</td>\n</tr>\n<tr style=\"height: 50px;\">\n<td style=\"width: 34.5537%; height: 50px;\"><span style=\"font-size: 18.4px;\"><a href=\"https://the-consortium.net/media/files/CVCGS-Jin-Soo-Lee.pdf\"><figure class=\"post__image\"><img loading=\"lazy\"  src=\"https://the-consortium.net/media/posts/14/Jinsoo-Lee-2.jpg\" alt=\"\" width=\"600\" height=\"330\" sizes=\"(max-width: 1024px) 100vw, 1024px\" srcset=\"https://the-consortium.net/media/posts/14/responsive/Jinsoo-Lee-2-xs.jpg 300w ,https://the-consortium.net/media/posts/14/responsive/Jinsoo-Lee-2-sm.jpg 480w ,https://the-consortium.net/media/posts/14/responsive/Jinsoo-Lee-2-md.jpg 768w ,https://the-consortium.net/media/posts/14/responsive/Jinsoo-Lee-2-lg.jpg 1024w\"></figure></a><br></span></td>\n<td style=\"width: 43.4449%; height: 50px;\">\n<div><span style=\"font-size: 28.4px;\">Jin Soo Lee</span></div>\n<div><span style=\"color: #3d464e;\"><a href=\"mailto:jinsoo.lee@polyu.edu.hk\" style=\"font-size: 18.4px;\">jinsoo.lee@polyu.edu.hk</a></span></div>\n<div><span style=\"font-size: 18.4px;\"> </span></div>\n<div><span style=\"font-size: 18.4px;\">Professor</span></div>\n<div><span style=\"font-size: 18.4px;\">The Hong Kong Polytechnic University</span></div>\n<div><span style=\"font-size: 18.4px;\">School of Hotel and Tourism Management</span></div>\n</td>\n</tr>\n<tr style=\"height: 50px;\">\n<td id=\"MWL\" style=\"width: 34.5537%; height: 50px;\"><span style=\"font-size: 18.4px;\"> <a href=\"https://the-consortium.net/media/files/CVCGS-Minwoo-Lee.pdf\"> <figure class=\"post__image\"><img loading=\"lazy\"  src=\"https://the-consortium.net/media/posts/14/Minwoo-Lee-2.jpg\" alt=\"\" width=\"600\" height=\"750\" sizes=\"(max-width: 1024px) 100vw, 1024px\" srcset=\"https://the-consortium.net/media/posts/14/responsive/Minwoo-Lee-2-xs.jpg 300w ,https://the-consortium.net/media/posts/14/responsive/Minwoo-Lee-2-sm.jpg 480w ,https://the-consortium.net/media/posts/14/responsive/Minwoo-Lee-2-md.jpg 768w ,https://the-consortium.net/media/posts/14/responsive/Minwoo-Lee-2-lg.jpg 1024w\"></figure></a><br></span></td>\n<td style=\"width: 43.4449%; height: 50px;\">\n<div><span style=\"font-size: 28.4px;\">Minwoo Lee</span></div>\n<div><span style=\"color: #3d464e;\"><a href=\"mailto:mlee37@uh.edu\" style=\"font-size: 18.4px;\">mlee37@uh.edu</a></span></div>\n<div><span style=\"font-size: 18.4px;\"> </span></div>\n<div><span style=\"font-size: 18.4px;\">Assistant Professor </span></div>\n<div><span style=\"font-size: 18.4px;\">Conrad N. Hilton College of</span></div>\n<div><span style=\"font-size: 18.4px;\">Hotel and Restaurant Management</span></div>\n</td>\n</tr>\n<tr>\n<td style=\"width: 34.5537%;\"><span style=\"font-size: 18.4px;\"><figure class=\"post__image\"><img loading=\"lazy\"  src=\"https://the-consortium.net/media/posts/14/Myong-Jae-Lee.jpg\" alt=\"\" width=\"600\" height=\"691\" sizes=\"(max-width: 1024px) 100vw, 1024px\" srcset=\"https://the-consortium.net/media/posts/14/responsive/Myong-Jae-Lee-xs.jpg 300w ,https://the-consortium.net/media/posts/14/responsive/Myong-Jae-Lee-sm.jpg 480w ,https://the-consortium.net/media/posts/14/responsive/Myong-Jae-Lee-md.jpg 768w ,https://the-consortium.net/media/posts/14/responsive/Myong-Jae-Lee-lg.jpg 1024w\"></figure><br></span></td>\n<td style=\"width: 43.4449%;\">\n<div><span style=\"font-size: 28.4px;\">Myong Jae Lee</span></div>\n<div><a href=\"mailto:mjlee@cpp.edu\">mjlee@cpp.edu</a></div>\n<div> </div>\n<div>Professor &amp; James A. Collins Distinguished Professor</div>\n<div>California State Polytechnic University Pomona</div>\n<div>Collins College of Hospitality Management</div>\n</td>\n</tr>\n<tr style=\"height: 50px;\">\n<td style=\"width: 34.5537%; height: 50px;\"><span style=\"font-size: 18.4px;\"><a href=\"https://the-consortium.net/media/files/CVCGS-Seoki-Lee.pdf\"><figure class=\"post__image\"><img loading=\"lazy\"  src=\"https://the-consortium.net/media/posts/14/Seoki-Lee-2.jpg\" alt=\"\" width=\"600\" height=\"901\" sizes=\"(max-width: 1024px) 100vw, 1024px\" srcset=\"https://the-consortium.net/media/posts/14/responsive/Seoki-Lee-2-xs.jpg 300w ,https://the-consortium.net/media/posts/14/responsive/Seoki-Lee-2-sm.jpg 480w ,https://the-consortium.net/media/posts/14/responsive/Seoki-Lee-2-md.jpg 768w ,https://the-consortium.net/media/posts/14/responsive/Seoki-Lee-2-lg.jpg 1024w\"></figure></a><br></span></td>\n<td style=\"width: 43.4449%; height: 50px;\">\n<div><span style=\"font-size: 28.4px;\">Seoki Lee</span></div>\n<div><span style=\"color: #3d464e;\"><a href=\"mailto:leeseoki@psu.edu\" style=\"font-size: 18.4px;\">leeseoki@psu.edu</a></span></div>\n<div><span style=\"font-size: 18.4px;\"> </span></div>\n<div><span style=\"font-size: 18.4px;\">Associate Professor</span></div>\n<div><span style=\"font-size: 18.4px;\">The Pennsylvania State University</span></div>\n<div><span style=\"font-size: 18.4px;\">School of Hospitality Management</span></div>\n</td>\n</tr>\n<tr style=\"height: 50px;\">\n<td style=\"width: 34.5537%; height: 50px;\"><span style=\"font-size: 18.4px;\"><a href=\"https://the-consortium.net/media/files/CVCGS-Seul-Ki-Lee.pdf\"><figure class=\"post__image\"><img loading=\"lazy\"  src=\"https://the-consortium.net/media/posts/14/Seul-Ki-Lee-2.png\" alt=\"\" width=\"600\" height=\"505\" sizes=\"(max-width: 1024px) 100vw, 1024px\" srcset=\"https://the-consortium.net/media/posts/14/responsive/Seul-Ki-Lee-2-xs.png 300w ,https://the-consortium.net/media/posts/14/responsive/Seul-Ki-Lee-2-sm.png 480w ,https://the-consortium.net/media/posts/14/responsive/Seul-Ki-Lee-2-md.png 768w ,https://the-consortium.net/media/posts/14/responsive/Seul-Ki-Lee-2-lg.png 1024w\"></figure></a><br></span></td>\n<td style=\"width: 43.4449%; height: 50px;\">\n<div><span style=\"font-size: 28.4px;\">Seul Ki Lee</span></div>\n<div><span style=\"color: #3d464e;\"><a href=\"mailto:seulkilee@sejong.ac.kr\" style=\"font-size: 18.4px;\">seulkilee@sejong.ac.kr</a></span></div>\n<div><span style=\"font-size: 18.4px;\"> </span></div>\n<div><span style=\"font-size: 18.4px;\">Associate Professor </span></div>\n<div><span style=\"font-size: 18.4px;\">Sejong University</span></div>\n<div><span style=\"font-size: 18.4px;\">College of Hospitality and Tourism Management</span></div>\n</td>\n</tr>\n<tr style=\"height: 50px;\">\n<td style=\"width: 34.5537%; height: 50px;\"><span style=\"font-size: 18.4px;\"> <a href=\"https://the-consortium.net/media/files/CVCGS-Tiffany-Legendre.pdf\"><figure class=\"post__image\"><img loading=\"lazy\"  src=\"https://the-consortium.net/media/posts/14/Tiffany-Legendre.jpg\" alt=\"\" width=\"600\" height=\"600\" sizes=\"(max-width: 1024px) 100vw, 1024px\" srcset=\"https://the-consortium.net/media/posts/14/responsive/Tiffany-Legendre-xs.jpg 300w ,https://the-consortium.net/media/posts/14/responsive/Tiffany-Legendre-sm.jpg 480w ,https://the-consortium.net/media/posts/14/responsive/Tiffany-Legendre-md.jpg 768w ,https://the-consortium.net/media/posts/14/responsive/Tiffany-Legendre-lg.jpg 1024w\"></figure></a></span></td>\n<td style=\"width: 43.4449%; height: 50px;\">\n<div><span style=\"font-size: 28.4px;\">Tiffany S Legendre</span></div>\n<div><span style=\"color: #3d464e;\"><a href=\"mailto:jslegendre@uh.edu\" style=\"font-size: 18.4px;\">jslegendre@uh.edu</a></span></div>\n<div><span style=\"font-size: 18.4px;\"> </span></div>\n<div><span style=\"font-size: 18.4px;\">Assistant Professor </span></div>\n<div><span style=\"font-size: 18.4px;\">University of Houston</span></div>\n<div><span style=\"font-size: 18.4px;\">Conrad N. Hilton College of</span></div>\n<div><span style=\"font-size: 18.4px;\">Hotel and Restaurant Management</span></div>\n</td>\n</tr>\n<tr style=\"height: 50px;\">\n<td style=\"width: 34.5537%; height: 50px;\"><span style=\"font-size: 18.4px;\"> <a href=\"https://the-consortium.net/media/files/CVCGS-Sang-Taek-Lim.pdf\"><figure class=\"post__image\"><img loading=\"lazy\"  src=\"https://the-consortium.net/media/posts/14/Sang-Taek-Lim.jpg\" alt=\"\" width=\"600\" height=\"900\" sizes=\"(max-width: 1024px) 100vw, 1024px\" srcset=\"https://the-consortium.net/media/posts/14/responsive/Sang-Taek-Lim-xs.jpg 300w ,https://the-consortium.net/media/posts/14/responsive/Sang-Taek-Lim-sm.jpg 480w ,https://the-consortium.net/media/posts/14/responsive/Sang-Taek-Lim-md.jpg 768w ,https://the-consortium.net/media/posts/14/responsive/Sang-Taek-Lim-lg.jpg 1024w\"></figure></a></span></td>\n<td style=\"width: 43.4449%; height: 50px;\">\n<div><span style=\"font-size: 28.4px;\">Sang Taek Lim</span></div>\n<div><span style=\"color: #3d464e;\"><a href=\"mailto:sangtaeklim@duytan.edu.vn\" style=\"font-size: 18.4px;\">sangtaeklim@duytan.edu.vn</a></span></div>\n<div><span style=\"font-size: 18.4px;\"> </span></div>\n<div><span style=\"font-size: 18.4px;\">Professor and Dean </span></div>\n<div><span style=\"font-size: 18.4px;\">Duy Tan University</span></div>\n<div><span style=\"font-size: 18.4px;\">Hospitality &amp; Tourism Institute</span></div>\n</td>\n</tr>\n<tr style=\"height: 50px;\">\n<td style=\"width: 34.5537%; height: 50px;\"><span style=\"font-size: 18.4px;\"> <a href=\"https://the-consortium.net/media/files/CVCGS-Seongbae-Lim.pdf\"><figure class=\"post__image\"><img loading=\"lazy\"  src=\"https://the-consortium.net/media/posts/14/Seongbae-Lim.jpg\" alt=\"\" width=\"600\" height=\"800\" sizes=\"(max-width: 1024px) 100vw, 1024px\" srcset=\"https://the-consortium.net/media/posts/14/responsive/Seongbae-Lim-xs.jpg 300w ,https://the-consortium.net/media/posts/14/responsive/Seongbae-Lim-sm.jpg 480w ,https://the-consortium.net/media/posts/14/responsive/Seongbae-Lim-md.jpg 768w ,https://the-consortium.net/media/posts/14/responsive/Seongbae-Lim-lg.jpg 1024w\"></figure></a></span></td>\n<td style=\"width: 43.4449%; height: 50px;\">\n<div><span style=\"font-size: 28.4px;\">Seongbae Lim</span></div>\n<div><span style=\"color: #3d464e;\"><a href=\"mailto:slim1@stmarytx.edu\" style=\"font-size: 18.4px;\">slim1@stmarytx.edu</a></span></div>\n<div><span style=\"font-size: 18.4px;\"> </span></div>\n<div><span style=\"font-size: 18.4px;\">Professor </span></div>\n<div><span style=\"font-size: 18.4px;\">St. Mary's University</span></div>\n<div><span style=\"font-size: 18.4px;\">Greehey School of Business</span></div>\n</td>\n</tr>\n<tr style=\"height: 50px;\">\n<td style=\"width: 34.5537%; height: 50px;\"><span style=\"font-size: 18.4px;\"> <a href=\"https://the-consortium.net/media/files/CVCGS-Juan-Madera.pdf\"><figure class=\"post__image\"><img loading=\"lazy\"  src=\"https://the-consortium.net/media/posts/14/Juan-Madera-2.jpg\" alt=\"\" width=\"600\" height=\"750\" sizes=\"(max-width: 1024px) 100vw, 1024px\" srcset=\"https://the-consortium.net/media/posts/14/responsive/Juan-Madera-2-xs.jpg 300w ,https://the-consortium.net/media/posts/14/responsive/Juan-Madera-2-sm.jpg 480w ,https://the-consortium.net/media/posts/14/responsive/Juan-Madera-2-md.jpg 768w ,https://the-consortium.net/media/posts/14/responsive/Juan-Madera-2-lg.jpg 1024w\"></figure></a></span></td>\n<td style=\"width: 43.4449%; height: 50px;\">\n<div><span style=\"font-size: 28.4px;\">Juan Madera</span></div>\n<div><span style=\"color: #3d464e;\"><a href=\"mailto:jmmadera@uh.edu\" style=\"font-size: 18.4px;\">jmmadera@uh.edu</a></span></div>\n<div><span style=\"font-size: 18.4px;\"> </span></div>\n<div><span style=\"font-size: 18.4px;\">Professor </span></div>\n<div><span style=\"font-size: 18.4px;\">University of Houston</span></div>\n<div><span style=\"font-size: 18.4px;\">Conrad N. Hilton College of</span></div>\n<div><span style=\"font-size: 18.4px;\">Hotel and Restaurant Management</span></div>\n</td>\n</tr>\n<tr>\n<td style=\"width: 34.5537%;\"><span style=\"font-size: 18.4px;\"><figure class=\"post__image\"><img loading=\"lazy\"  src=\"https://the-consortium.net/media/posts/14/dustin-maneethai-1.jpeg\" alt=\"\" width=\"600\" height=\"750\" sizes=\"(max-width: 1024px) 100vw, 1024px\" srcset=\"https://the-consortium.net/media/posts/14/responsive/dustin-maneethai-1-xs.jpeg 300w ,https://the-consortium.net/media/posts/14/responsive/dustin-maneethai-1-sm.jpeg 480w ,https://the-consortium.net/media/posts/14/responsive/dustin-maneethai-1-md.jpeg 768w ,https://the-consortium.net/media/posts/14/responsive/dustin-maneethai-1-lg.jpeg 1024w\"></figure><br></span></td>\n<td style=\"width: 43.4449%;\">\n<div><span style=\"font-size: 28.4px;\">Dustin Maneethai</span></div>\n<div><a href=\"mailto:dmaneeth@central.uh.edu\">dmaneeth@central.uh.edu</a></div>\n<div> </div>\n<div>Assistant Professor</div>\n<div>University of Houston</div>\n<div>Conrad N. Hilton College of</div>\n<div>Global Hospitality Leadership</div>\n</td>\n</tr>\n<tr style=\"height: 50px;\">\n<td style=\"width: 34.5537%; height: 50px;\"><span style=\"font-size: 18.4px;\"> <a href=\"https://the-consortium.net/media/files/CVCGS-Anna-Mattila.pdf\"><figure class=\"post__image\"><img loading=\"lazy\"  src=\"https://the-consortium.net/media/posts/14/Anna-Mattila.jpg\" alt=\"\" width=\"600\" height=\"900\" sizes=\"(max-width: 1024px) 100vw, 1024px\" srcset=\"https://the-consortium.net/media/posts/14/responsive/Anna-Mattila-xs.jpg 300w ,https://the-consortium.net/media/posts/14/responsive/Anna-Mattila-sm.jpg 480w ,https://the-consortium.net/media/posts/14/responsive/Anna-Mattila-md.jpg 768w ,https://the-consortium.net/media/posts/14/responsive/Anna-Mattila-lg.jpg 1024w\"></figure></a></span></td>\n<td style=\"width: 43.4449%; height: 50px;\">\n<div><span style=\"font-size: 28.4px;\">Anna S. Mattila</span></div>\n<div><span style=\"color: #3d464e;\"><a href=\"mailto:asm6@psu.edu\" style=\"font-size: 18.4px;\">asm6@psu.edu</a></span></div>\n<div><span style=\"font-size: 18.4px;\"> </span></div>\n<div><span style=\"font-size: 18.4px;\">Marriott Professor of Lodging Management </span></div>\n<div><span style=\"font-size: 18.4px;\">Pennsylvania State University</span></div>\n</td>\n</tr>\n<tr style=\"height: 50px;\">\n<td style=\"width: 34.5537%; height: 50px;\"><span style=\"font-size: 18.4px;\"> <a href=\"https://the-consortium.net/media/files/CVCGS-Vikneswaran-Nair.pdf\"><figure class=\"post__image\"><img loading=\"lazy\"  src=\"https://the-consortium.net/media/posts/14/Vikneswaran-Nair-2.jpg\" alt=\"\" width=\"600\" height=\"1002\" sizes=\"(max-width: 1024px) 100vw, 1024px\" srcset=\"https://the-consortium.net/media/posts/14/responsive/Vikneswaran-Nair-2-xs.jpg 300w ,https://the-consortium.net/media/posts/14/responsive/Vikneswaran-Nair-2-sm.jpg 480w ,https://the-consortium.net/media/posts/14/responsive/Vikneswaran-Nair-2-md.jpg 768w ,https://the-consortium.net/media/posts/14/responsive/Vikneswaran-Nair-2-lg.jpg 1024w\"></figure></a></span></td>\n<td style=\"width: 43.4449%; height: 50px;\">\n<div><span style=\"font-size: 28.4px;\">Vikneswaran Nair</span></div>\n<div><span style=\"color: #3d464e;\"><a href=\"mailto:vik.nair@disted.edu.my\" style=\"font-size: 18.4px;\">vik.nair@disted.edu.my</a></span></div>\n<div><span style=\"font-size: 18.4px;\"> </span></div>\n<div><span style=\"font-size: 18.4px;\">President and Professor </span></div>\n<div><span style=\"font-size: 18.4px;\">DISTED College</span></div>\n<div><span style=\"font-size: 18.4px;\">Wawasan Open University, Malaysia</span></div>\n</td>\n</tr>\n<tr>\n<td style=\"width: 34.5537%;\"><span style=\"font-size: 18.4px;\"><figure class=\"post__image\"><img loading=\"lazy\"  src=\"https://the-consortium.net/media/posts/14/ANH-PHUONG-5x5-2-1.jpg\" alt=\"\" width=\"600\" height=\"600\" sizes=\"(max-width: 1024px) 100vw, 1024px\" srcset=\"https://the-consortium.net/media/posts/14/responsive/ANH-PHUONG-5x5-2-1-xs.jpg 300w ,https://the-consortium.net/media/posts/14/responsive/ANH-PHUONG-5x5-2-1-sm.jpg 480w ,https://the-consortium.net/media/posts/14/responsive/ANH-PHUONG-5x5-2-1-md.jpg 768w ,https://the-consortium.net/media/posts/14/responsive/ANH-PHUONG-5x5-2-1-lg.jpg 1024w\"></figure><br></span></td>\n<td style=\"width: 43.4449%;\">\n<div><span style=\"font-size: 28.4px;\">Phuong Van Nguyen</span></div>\n<div><a href=\"mailto:nvphuong@hcmiu.edu.vn\">nvphuong@hcmiu.edu.vn</a></div>\n<div> </div>\n<div>Associate Professor and</div>\n<div>Head of Center For Public Administration</div>\n<div>International University,</div>\n<div>Vietnam National University-Ho Chi Minh City</div>\n</td>\n</tr>\n<tr style=\"height: 50px;\">\n<td style=\"width: 34.5537%; height: 50px;\"><span style=\"font-size: 18.4px;\"> <a href=\"https://the-consortium.net/media/files/CVCGS-Takashi-Oguchi.pdf\"><figure class=\"post__image\"><img loading=\"lazy\"  src=\"https://the-consortium.net/media/posts/14/Takashi-Oguchi-2.jpg\" alt=\"\" width=\"600\" height=\"807\" sizes=\"(max-width: 1024px) 100vw, 1024px\" srcset=\"https://the-consortium.net/media/posts/14/responsive/Takashi-Oguchi-2-xs.jpg 300w ,https://the-consortium.net/media/posts/14/responsive/Takashi-Oguchi-2-sm.jpg 480w ,https://the-consortium.net/media/posts/14/responsive/Takashi-Oguchi-2-md.jpg 768w ,https://the-consortium.net/media/posts/14/responsive/Takashi-Oguchi-2-lg.jpg 1024w\"></figure></a></span></td>\n<td style=\"width: 43.4449%; height: 50px;\">\n<div><span style=\"font-size: 28.4px;\">Takashi Oguchi</span></div>\n<div><span style=\"color: #3d464e;\"><a href=\"mailto:oguchi@rikkyo.ac.jp\" style=\"font-size: 18.4px;\">oguchi@rikkyo.ac.jp</a></span></div>\n<div><span style=\"font-size: 18.4px;\"> </span></div>\n<div><span style=\"font-size: 18.4px;\">Professor</span></div>\n<div><span style=\"font-size: 18.4px;\">Rikkyo University</span></div>\n</td>\n</tr>\n<tr style=\"height: 50px;\">\n<td style=\"width: 34.5537%; height: 50px;\"><span style=\"font-size: 18.4px;\"> <a href=\"https://the-consortium.net/media/files/CVCGS-Chihyung-Michael-Ok.pdf\"><figure class=\"post__image\"><img loading=\"lazy\"  src=\"https://the-consortium.net/media/posts/14/Chihyung-Michael-Ok-2.jpg\" alt=\"\" width=\"600\" height=\"751\" sizes=\"(max-width: 1024px) 100vw, 1024px\" srcset=\"https://the-consortium.net/media/posts/14/responsive/Chihyung-Michael-Ok-2-xs.jpg 300w ,https://the-consortium.net/media/posts/14/responsive/Chihyung-Michael-Ok-2-sm.jpg 480w ,https://the-consortium.net/media/posts/14/responsive/Chihyung-Michael-Ok-2-md.jpg 768w ,https://the-consortium.net/media/posts/14/responsive/Chihyung-Michael-Ok-2-lg.jpg 1024w\"></figure></a></span></td>\n<td style=\"width: 43.4449%; height: 50px;\">\n<div><span style=\"font-size: 28.4px;\">Chihyung \"Michael\" Ok</span></div>\n<div><span style=\"color: #3d464e;\"><a href=\"mailto:michael.ok@temple.edu\" style=\"font-size: 18.4px;\">michael.ok@temple.edu</a></span></div>\n<div><span style=\"font-size: 18.4px;\"> </span></div>\n<div><span style=\"font-size: 18.4px;\">Associate Professor</span></div>\n<div><span style=\"font-size: 18.4px;\">Temple University</span></div>\n</td>\n</tr>\n<tr style=\"height: 50px;\">\n<td style=\"width: 34.5537%; height: 50px;\"><span style=\"font-size: 18.4px;\"> <a href=\"https://the-consortium.net/media/files/CVCGS-Hera-Oktadiana.pdf\"><figure class=\"post__image\"><img loading=\"lazy\"  src=\"https://the-consortium.net/media/posts/14/Hera-Oktadiana.png\" alt=\"\" width=\"600\" height=\"934\" sizes=\"(max-width: 1024px) 100vw, 1024px\" srcset=\"https://the-consortium.net/media/posts/14/responsive/Hera-Oktadiana-xs.png 300w ,https://the-consortium.net/media/posts/14/responsive/Hera-Oktadiana-sm.png 480w ,https://the-consortium.net/media/posts/14/responsive/Hera-Oktadiana-md.png 768w ,https://the-consortium.net/media/posts/14/responsive/Hera-Oktadiana-lg.png 1024w\"></figure></a></span></td>\n<td style=\"width: 43.4449%; height: 50px;\">\n<div><span style=\"font-size: 28.4px;\">Hera Oktadiana</span></div>\n<div><span style=\"color: #3d464e;\"><a href=\"mailto:hera.oktadiana@jcu.edu.au\" style=\"font-size: 18.4px;\">hera.oktadiana@jcu.edu.au</a></span></div>\n<div><span style=\"font-size: 18.4px;\"> </span></div>\n<div><span style=\"font-size: 18.4px;\">Associate Professor</span></div>\n<div><span style=\"font-size: 18.4px;\">James Cook University Australia</span></div>\n<div><span style=\"font-size: 18.4px;\">College of Business, Law and Governance</span></div>\n<div><span style=\"font-size: 18.4px;\">Trisakti School of Tourism</span></div>\n</td>\n</tr>\n<tr>\n<td style=\"width: 34.5537%;\"><span style=\"font-size: 18.4px;\"><figure class=\"post__image\"><img loading=\"lazy\"  src=\"https://the-consortium.net/media/posts/14/HeadShot_Park_Hyekyung-1.jpeg\" alt=\"\" width=\"600\" height=\"750\" sizes=\"(max-width: 1024px) 100vw, 1024px\" srcset=\"https://the-consortium.net/media/posts/14/responsive/HeadShot_Park_Hyekyung-1-xs.jpeg 300w ,https://the-consortium.net/media/posts/14/responsive/HeadShot_Park_Hyekyung-1-sm.jpeg 480w ,https://the-consortium.net/media/posts/14/responsive/HeadShot_Park_Hyekyung-1-md.jpeg 768w ,https://the-consortium.net/media/posts/14/responsive/HeadShot_Park_Hyekyung-1-lg.jpeg 1024w\"></figure><br></span></td>\n<td style=\"width: 43.4449%;\">\n<div><span style=\"font-size: 28.4px;\">Hyekyung \"Danielle\" Park</span></div>\n<div><a href=\"mailto:dpark4@fsu.edu\">dpark4@fsu.edu</a></div>\n<div> </div>\n<div>Assistant Professor</div>\n<div>Florida State University</div>\n<div>Dedman College of Hospitality</div>\n</td>\n</tr>\n<tr style=\"height: 50px;\">\n<td style=\"width: 34.5537%; height: 50px;\"><span style=\"font-size: 18.4px;\"> <a href=\"https://the-consortium.net/media/files/CVCGS-Jung-Park.pdf\"><figure class=\"post__image\"><img loading=\"lazy\"  src=\"https://the-consortium.net/media/posts/14/Jungkun-Park-2.jpg\" alt=\"\" width=\"600\" height=\"800\" sizes=\"(max-width: 1024px) 100vw, 1024px\" srcset=\"https://the-consortium.net/media/posts/14/responsive/Jungkun-Park-2-xs.jpg 300w ,https://the-consortium.net/media/posts/14/responsive/Jungkun-Park-2-sm.jpg 480w ,https://the-consortium.net/media/posts/14/responsive/Jungkun-Park-2-md.jpg 768w ,https://the-consortium.net/media/posts/14/responsive/Jungkun-Park-2-lg.jpg 1024w\"></figure></a></span></td>\n<td style=\"width: 43.4449%; height: 50px;\">\n<div><span style=\"font-size: 28.4px;\">Jungkun Park</span></div>\n<div><span style=\"color: #3d464e;\"><a href=\"mailto:viroid2007@gmail.com\" style=\"font-size: 18.4px;\">viroid2007@gmail.com</a></span></div>\n<div><span style=\"font-size: 18.4px;\"> </span></div>\n<div><span style=\"font-size: 18.4px;\">Professor</span></div>\n<div><span style=\"font-size: 18.4px;\">Hayang University</span></div>\n</td>\n</tr>\n<tr style=\"height: 50px;\">\n<td style=\"width: 34.5537%; height: 50px;\"><span style=\"font-size: 18.4px;\"> <a href=\"https://the-consortium.net/media/files/CVCGS-Kwangsoo-Park-2023.pdf\"><figure class=\"post__image\"><img loading=\"lazy\"  src=\"https://the-consortium.net/media/posts/14/Kwangsoo-Park-2.jpg\" alt=\"\" width=\"600\" height=\"840\" sizes=\"(max-width: 1024px) 100vw, 1024px\" srcset=\"https://the-consortium.net/media/posts/14/responsive/Kwangsoo-Park-2-xs.jpg 300w ,https://the-consortium.net/media/posts/14/responsive/Kwangsoo-Park-2-sm.jpg 480w ,https://the-consortium.net/media/posts/14/responsive/Kwangsoo-Park-2-md.jpg 768w ,https://the-consortium.net/media/posts/14/responsive/Kwangsoo-Park-2-lg.jpg 1024w\"></figure></a></span></td>\n<td style=\"width: 43.4449%; height: 50px;\">\n<div><span style=\"font-size: 28.4px;\">Kwangsoo Park</span></div>\n<div><span style=\"color: #3d464e;\"><a href=\"mailto:kwangsoo.park@ndsu.edu\" style=\"font-size: 18.4px;\">park1717@pnw.edu</a></span></div>\n<div><span style=\"font-size: 18.4px;\"> </span></div>\n<div><span style=\"font-size: 18.4px;\">Associate Dean / Director</span></div>\n<div>Purdue University Northwest</div>\n<div>College of Business</div>\n<div><span style=\"font-size: 18.4px;\">White Lodging School of </span></div>\n<div><span style=\"font-size: 18.4px;\">Hospitality and Tourism Management</span></div>\n</td>\n</tr>\n<tr style=\"height: 50px;\">\n<td style=\"width: 34.5537%; height: 50px;\"><span style=\"font-size: 18.4px;\"> <a href=\"https://the-consortium.net/media/files/CVCGS-Pornpisanu-Promsivapallop.pdf\"><figure class=\"post__image\"><img loading=\"lazy\"  src=\"https://the-consortium.net/media/posts/14/Pornpisanu-Promsivapallop.jpg\" alt=\"\" width=\"600\" height=\"529\" sizes=\"(max-width: 1024px) 100vw, 1024px\" srcset=\"https://the-consortium.net/media/posts/14/responsive/Pornpisanu-Promsivapallop-xs.jpg 300w ,https://the-consortium.net/media/posts/14/responsive/Pornpisanu-Promsivapallop-sm.jpg 480w ,https://the-consortium.net/media/posts/14/responsive/Pornpisanu-Promsivapallop-md.jpg 768w ,https://the-consortium.net/media/posts/14/responsive/Pornpisanu-Promsivapallop-lg.jpg 1024w\"></figure></a></span></td>\n<td style=\"width: 43.4449%; height: 50px;\">\n<div><span style=\"font-size: 28.4px;\">Pornpisanu Promsivapallop</span></div>\n<div><span style=\"color: #3d464e;\"><a href=\"mailto:pornpisanu.p@phuket.psu.ac.th\" style=\"font-size: 18.4px;\">pornpisanu.p@phuket.psu.ac.th</a></span></div>\n<div><span style=\"font-size: 18.4px;\"> </span></div>\n<div><span style=\"font-size: 18.4px;\">Dean and Assistant Professor</span></div>\n<div><span style=\"font-size: 18.4px;\">Prince of Songkla University</span></div>\n<div><span style=\"font-size: 18.4px;\">Faculty of Hospitality and Tourism</span></div>\n</td>\n</tr>\n<tr style=\"height: 196px;\">\n<td style=\"width: 34.5537%; height: 196px;\"><span style=\"font-size: 18.4px;\"> <a href=\"https://the-consortium.net/media/files/CVCGS-Dennis-Reynolds.pdf\"><figure class=\"post__image\"><img loading=\"lazy\"  src=\"https://the-consortium.net/media/posts/14/Dennis-Reynolds-2.jpg\" alt=\"\" width=\"600\" height=\"750\" sizes=\"(max-width: 1024px) 100vw, 1024px\" srcset=\"https://the-consortium.net/media/posts/14/responsive/Dennis-Reynolds-2-xs.jpg 300w ,https://the-consortium.net/media/posts/14/responsive/Dennis-Reynolds-2-sm.jpg 480w ,https://the-consortium.net/media/posts/14/responsive/Dennis-Reynolds-2-md.jpg 768w ,https://the-consortium.net/media/posts/14/responsive/Dennis-Reynolds-2-lg.jpg 1024w\"></figure></a></span></td>\n<td style=\"width: 43.4449%; height: 196px;\">\n<div><span style=\"font-size: 28.4px;\">Dennis Reynolds</span></div>\n<div><span style=\"color: #3d464e;\"><a href=\"mailto:der@uh.edu\" style=\"font-size: 18.4px;\">der@uh.edu</a></span></div>\n<div><span style=\"font-size: 18.4px;\"> </span></div>\n<div><span style=\"font-size: 18.4px;\">Dean</span></div>\n<div><span style=\"font-size: 18.4px;\">University of Houston </span></div>\n<div><span style=\"font-size: 18.4px;\">Hilton College</span></div>\n</td>\n</tr>\n<tr style=\"height: 50px;\">\n<td style=\"width: 34.5537%; height: 50px;\"><span style=\"font-size: 18.4px;\"> <a href=\"https://the-consortium.net/media/files/CVCGS-Bongkosh-Rittichainuwat.pdf\"><figure class=\"post__image\"><img loading=\"lazy\"  src=\"https://the-consortium.net/media/posts/14/Bongkosh-Rittichainuwat.jpg\" alt=\"\" width=\"600\" height=\"576\" sizes=\"(max-width: 1024px) 100vw, 1024px\" srcset=\"https://the-consortium.net/media/posts/14/responsive/Bongkosh-Rittichainuwat-xs.jpg 300w ,https://the-consortium.net/media/posts/14/responsive/Bongkosh-Rittichainuwat-sm.jpg 480w ,https://the-consortium.net/media/posts/14/responsive/Bongkosh-Rittichainuwat-md.jpg 768w ,https://the-consortium.net/media/posts/14/responsive/Bongkosh-Rittichainuwat-lg.jpg 1024w\"></figure></a></span></td>\n<td style=\"width: 43.4449%; height: 50px;\">\n<div><span style=\"font-size: 28.4px;\">Bongkosh Rittichainuwat</span></div>\n<div><span style=\"color: #3d464e;\"><a href=\"mailto:ngamson@gmail.com\" style=\"font-size: 18.4px;\">ngamson@gmail.com</a></span></div>\n<div><span style=\"font-size: 18.4px;\"> </span></div>\n<div><span style=\"font-size: 18.4px;\">Dean and Associate Professor </span></div>\n<div><span style=\"font-size: 18.4px;\">International College</span></div>\n<div><span style=\"font-size: 18.4px;\">Hotel &amp; Tourism Management</span></div>\n<div><span style=\"font-size: 18.4px;\">Siam University</span></div>\n</td>\n</tr>\n<tr style=\"height: 50px;\">\n<td style=\"width: 34.5537%; height: 50px;\"><span style=\"font-size: 18.4px;\"> <a href=\"https://the-consortium.net/media/files/CVCGS-Achim-Schmitt.pdf\"><figure class=\"post__image\"><img loading=\"lazy\"  src=\"https://the-consortium.net/media/posts/14/Achim-Schmitt-2.jpg\" alt=\"\" width=\"600\" height=\"901\" sizes=\"(max-width: 1024px) 100vw, 1024px\" srcset=\"https://the-consortium.net/media/posts/14/responsive/Achim-Schmitt-2-xs.jpg 300w ,https://the-consortium.net/media/posts/14/responsive/Achim-Schmitt-2-sm.jpg 480w ,https://the-consortium.net/media/posts/14/responsive/Achim-Schmitt-2-md.jpg 768w ,https://the-consortium.net/media/posts/14/responsive/Achim-Schmitt-2-lg.jpg 1024w\"></figure></a></span></td>\n<td style=\"width: 43.4449%; height: 50px;\">\n<div><span style=\"font-size: 28.4px;\">Achim Schmitt</span></div>\n<div><span style=\"color: #3d464e;\"><span style=\"font-size: 18.4px;\"><a href=\"mailto:Achim.Schmitt@ehl.ch\">Achim.Schmitt@ehl.ch</a></span></span></div>\n<div> </div>\n<div><span style=\"font-size: 18.4px;\">Dean </span><span style=\"font-size: 18.4px;\">Graduate School </span></div>\n<div><span style=\"font-size: 18.4px;\">EHL</span></div>\n</td>\n</tr>\n<tr style=\"height: 50px;\">\n<td style=\"width: 34.5537%; height: 50px;\"><span style=\"font-size: 18.4px;\"> <a href=\"https://the-consortium.net/media/files/CVCGS-Markus-Schuckert.pdf\"><figure class=\"post__image\"><img loading=\"lazy\"  src=\"https://the-consortium.net/media/posts/14/Markus-Schuckert.jpg\" alt=\"\" width=\"600\" height=\"600\" sizes=\"(max-width: 1024px) 100vw, 1024px\" srcset=\"https://the-consortium.net/media/posts/14/responsive/Markus-Schuckert-xs.jpg 300w ,https://the-consortium.net/media/posts/14/responsive/Markus-Schuckert-sm.jpg 480w ,https://the-consortium.net/media/posts/14/responsive/Markus-Schuckert-md.jpg 768w ,https://the-consortium.net/media/posts/14/responsive/Markus-Schuckert-lg.jpg 1024w\"></figure></a></span></td>\n<td style=\"width: 43.4449%; height: 50px;\">\n<div><span style=\"font-size: 28.4px;\">Markus Schuckert</span></div>\n<div><span style=\"color: #3d464e;\"><span style=\"font-size: 18.4px;\"><a href=\"mailto:mrschuck@uno.edo\">mrschuck@uno.edo</a></span></span></div>\n<div> </div>\n<div><span style=\"font-size: 18.4px;\">Professor and </span><span style=\"font-size: 18.4px;\">Director</span></div>\n<div><span style=\"font-size: 18.4px;\">Kabacoff School of </span></div>\n<div><span style=\"font-size: 18.4px;\">Hotel, </span><span style=\"font-size: 18.4px;\">Restaurant </span><span style=\"font-size: 18.4px;\">and Tourism Administration</span></div>\n</td>\n</tr>\n<tr style=\"height: 50px;\">\n<td style=\"width: 34.5537%; height: 50px;\"><span style=\"font-size: 18.4px;\"> <a href=\"https://the-consortium.net/media/files/CVCGS-Carol-Shanklin.pdf\"><figure class=\"post__image\"><img loading=\"lazy\"  src=\"https://the-consortium.net/media/posts/14/Carol-Shanklin-2.jpg\" alt=\"\" width=\"600\" height=\"902\" sizes=\"(max-width: 1024px) 100vw, 1024px\" srcset=\"https://the-consortium.net/media/posts/14/responsive/Carol-Shanklin-2-xs.jpg 300w ,https://the-consortium.net/media/posts/14/responsive/Carol-Shanklin-2-sm.jpg 480w ,https://the-consortium.net/media/posts/14/responsive/Carol-Shanklin-2-md.jpg 768w ,https://the-consortium.net/media/posts/14/responsive/Carol-Shanklin-2-lg.jpg 1024w\"></figure></a></span></td>\n<td style=\"width: 43.4449%; height: 50px;\">\n<div><span style=\"font-size: 28.4px;\">[Advisor]</span></div>\n<div><span style=\"font-size: 28.4px;\">Carol W. Shanklin</span></div>\n<div><span style=\"color: #3d464e;\"><span style=\"font-size: 18.4px;\"><a href=\"mailto:shanklin@ksu.edu\">shanklin@ksu.edu</a></span></span></div>\n<div> </div>\n<div><span style=\"font-size: 18.4px;\">Dean and </span><span style=\"font-size: 18.4px;\">Professor Emeritus </span></div>\n<div><span style=\"font-size: 18.4px;\">Kansas State University</span></div>\n</td>\n</tr>\n<tr style=\"height: 50px;\">\n<td id=\"MJS\" style=\"width: 34.5537%; height: 50px;\"><span style=\"font-size: 18.4px;\"> <a href=\"https://the-consortium.net/media/files/CVCGS-Minjung-Shin.pdf\"><figure class=\"post__image\"><img loading=\"lazy\"  src=\"https://the-consortium.net/media/posts/14/Minjung-Shin.jpg\" alt=\"\" width=\"600\" height=\"799\" sizes=\"(max-width: 1024px) 100vw, 1024px\" srcset=\"https://the-consortium.net/media/posts/14/responsive/Minjung-Shin-xs.jpg 300w ,https://the-consortium.net/media/posts/14/responsive/Minjung-Shin-sm.jpg 480w ,https://the-consortium.net/media/posts/14/responsive/Minjung-Shin-md.jpg 768w ,https://the-consortium.net/media/posts/14/responsive/Minjung-Shin-lg.jpg 1024w\"></figure></a></span></td>\n<td style=\"width: 43.4449%; height: 50px;\">\n<div><span style=\"font-size: 28.4px;\">Minjung Shin</span></div>\n<div><span style=\"color: #3d464e;\"><span style=\"font-size: 18.4px;\"><a href=\"mailto:mshin4@uh.edu\">mshin4@uh.edu</a></span></span></div>\n<div> </div>\n<div><span style=\"font-size: 18.4px;\">Assistant Professor</span></div>\n<div><span style=\"font-size: 18.4px;\">University of Houston</span></div>\n<div><span style=\"font-size: 18.4px;\">Conrad N. Hilton College of</span></div>\n<div><span style=\"font-size: 18.4px;\">Hotel and Restaurant Management</span></div>\n</td>\n</tr>\n<tr style=\"height: 50px;\">\n<td style=\"width: 34.5537%; height: 50px;\"><span style=\"font-size: 18.4px;\"> <a href=\"https://the-consortium.net/media/files/CVCGS-Kevin-So.pdf\"><figure class=\"post__image\"><img loading=\"lazy\"  src=\"https://the-consortium.net/media/posts/14/Kevin-Kam-Fung-So-2.jpg\" alt=\"\" width=\"600\" height=\"590\" sizes=\"(max-width: 1024px) 100vw, 1024px\" srcset=\"https://the-consortium.net/media/posts/14/responsive/Kevin-Kam-Fung-So-2-xs.jpg 300w ,https://the-consortium.net/media/posts/14/responsive/Kevin-Kam-Fung-So-2-sm.jpg 480w ,https://the-consortium.net/media/posts/14/responsive/Kevin-Kam-Fung-So-2-md.jpg 768w ,https://the-consortium.net/media/posts/14/responsive/Kevin-Kam-Fung-So-2-lg.jpg 1024w\"></figure></a></span></td>\n<td style=\"width: 43.4449%; height: 50px;\">\n<div><span style=\"font-size: 28.4px;\">Kevin Kam Fung So</span></div>\n<div><span style=\"color: #3d464e;\"><span style=\"font-size: 18.4px;\"><a href=\"mailto:kevin.so@okstate.edu\">kevin.so@okstate.edu</a></span></span></div>\n<div> </div>\n<div><span style=\"font-size: 18.4px;\">Associate Professor</span></div>\n<div><span style=\"font-size: 18.4px;\">Oklahoma State University</span></div>\n<div><span style=\"font-size: 18.4px;\">Spears School of Business</span></div>\n<div><span style=\"font-size: 18.4px;\">School of Hospitality and Tourism Management</span></div>\n</td>\n</tr>\n<tr style=\"height: 50px;\">\n<td style=\"width: 34.5537%; height: 50px;\"><span style=\"font-size: 18.4px;\"> <a href=\"https://the-consortium.net/media/files/CVCGS-Haiyan-Song.pdf\"><figure class=\"post__image\"><img loading=\"lazy\"  src=\"https://the-consortium.net/media/posts/14/Haiyan-Peter-Song-2.jpg\" alt=\"\" width=\"600\" height=\"896\" sizes=\"(max-width: 1024px) 100vw, 1024px\" srcset=\"https://the-consortium.net/media/posts/14/responsive/Haiyan-Peter-Song-2-xs.jpg 300w ,https://the-consortium.net/media/posts/14/responsive/Haiyan-Peter-Song-2-sm.jpg 480w ,https://the-consortium.net/media/posts/14/responsive/Haiyan-Peter-Song-2-md.jpg 768w ,https://the-consortium.net/media/posts/14/responsive/Haiyan-Peter-Song-2-lg.jpg 1024w\"></figure></a></span></td>\n<td style=\"width: 43.4449%; height: 50px;\">\n<div><span style=\"font-size: 28.4px;\">Haiyan Song</span></div>\n<div><span style=\"color: #3d464e;\"><span style=\"font-size: 18.4px;\"><a href=\"mailto:haiyan.song@polyu.edu.hk\">haiyan.song@polyu.edu.hk</a></span></span></div>\n<div> </div>\n<div><span style=\"font-size: 18.4px;\">Chair Professor and </span><span style=\"font-size: 18.4px;\">Associate Dean</span></div>\n<div><span style=\"font-size: 18.4px;\">The Hong Kong Polytechnic University</span></div>\n<div><span style=\"font-size: 18.4px;\">School of Hotel and Tourism Management</span></div>\n</td>\n</tr>\n<tr>\n<td style=\"width: 34.5537%;\"><span style=\"font-size: 18.4px;\"><figure class=\"post__image\"><img loading=\"lazy\"  src=\"https://the-consortium.net/media/posts/14/Pof_Bela_Stantic-1.jpg\" alt=\"\" width=\"600\" height=\"665\" sizes=\"(max-width: 1024px) 100vw, 1024px\" srcset=\"https://the-consortium.net/media/posts/14/responsive/Pof_Bela_Stantic-1-xs.jpg 300w ,https://the-consortium.net/media/posts/14/responsive/Pof_Bela_Stantic-1-sm.jpg 480w ,https://the-consortium.net/media/posts/14/responsive/Pof_Bela_Stantic-1-md.jpg 768w ,https://the-consortium.net/media/posts/14/responsive/Pof_Bela_Stantic-1-lg.jpg 1024w\"></figure><br></span></td>\n<td style=\"width: 43.4449%;\">\n<div><span style=\"font-size: 28.4px;\">Bela Stantic</span></div>\n<div><a href=\"mailto:b.stantic@griffith.edu.au\">b.stantic@griffith.edu.au</a></div>\n<div> </div>\n<div>Professor and Director of Big Data and Smart Analytics Lab – IIIS</div>\n<div>Griffith University</div>\n<div>School of Information and Communication Technology</div>\n</td>\n</tr>\n<tr style=\"height: 50px;\">\n<td style=\"width: 34.5537%; height: 50px;\"><span style=\"font-size: 18.4px;\"> <a href=\"https://the-consortium.net/media/files/CVCGS-SUH_Jaebeom VITAE.pdf\"><figure class=\"post__image\"><img loading=\"lazy\"  src=\"https://the-consortium.net/media/posts/14/Suh-P7061_182-04.jpg\" alt=\"\" width=\"600\" height=\"840\" sizes=\"(max-width: 1024px) 100vw, 1024px\" srcset=\"https://the-consortium.net/media/posts/14/responsive/Suh-P7061_182-04-xs.jpg 300w ,https://the-consortium.net/media/posts/14/responsive/Suh-P7061_182-04-sm.jpg 480w ,https://the-consortium.net/media/posts/14/responsive/Suh-P7061_182-04-md.jpg 768w ,https://the-consortium.net/media/posts/14/responsive/Suh-P7061_182-04-lg.jpg 1024w\"></figure></a></span></td>\n<td style=\"width: 43.4449%; height: 50px;\">\n<div><span style=\"font-size: 28.4px;\">Jaebeom Suh</span></div>\n<div><span style=\"color: #3d464e;\"><span style=\"font-size: 18.4px;\"><a href=\"mailto:jsuh@ksu.edu\">jsuh@ksu.edu</a></span></span></div>\n<div>\n<p style=\"font-weight: 400;\">Professor and Burke-Campbell Faculty Fellow<br>Kansas State University<br>College of Business Administration<span style=\"color: var(--text-primary-color); font-family: var(--editor-font-family); font-size: inherit; font-weight: var(--font-weight-normal);\"> </span></p>\n</div>\n</td>\n</tr>\n<tr style=\"height: 138px;\">\n<td style=\"width: 34.5537%; height: 138px;\"><span style=\"font-size: 18.4px;\"> <a href=\"https://the-consortium.net/media/files/CVCGS-Arun-Upneja.pdf\"><figure class=\"post__image\"><img loading=\"lazy\"  src=\"https://the-consortium.net/media/posts/14/Arun-Upneja-2.jpg\" alt=\"\" width=\"600\" height=\"665\" sizes=\"(max-width: 1024px) 100vw, 1024px\" srcset=\"https://the-consortium.net/media/posts/14/responsive/Arun-Upneja-2-xs.jpg 300w ,https://the-consortium.net/media/posts/14/responsive/Arun-Upneja-2-sm.jpg 480w ,https://the-consortium.net/media/posts/14/responsive/Arun-Upneja-2-md.jpg 768w ,https://the-consortium.net/media/posts/14/responsive/Arun-Upneja-2-lg.jpg 1024w\"></figure></a></span></td>\n<td style=\"width: 43.4449%; height: 138px;\">\n<div><span style=\"font-size: 28.4px;\">Arun Upneja</span></div>\n<div><span style=\"color: #3d464e;\"><span style=\"font-size: 18.4px;\"><a href=\"mailto:aupneja@bu.edu\">aupneja@bu.edu</a></span></span></div>\n<div> </div>\n<div><span style=\"font-size: 18.4px;\">Dean and </span><span style=\"font-size: 18.4px;\">Professor</span></div>\n<div>Boston University</div>\n<div>School of Hospitality Administration</div>\n<div> </div>\n</td>\n</tr>\n<tr style=\"height: 196px;\">\n<td style=\"width: 34.5537%; height: 196px;\"><span style=\"font-size: 18.4px;\"> <a href=\"https://the-consortium.net/media/files/CVCGS-Elizabeth-Kyoko-Wada.pdf\"><figure class=\"post__image\"><img loading=\"lazy\"  src=\"https://the-consortium.net/media/posts/14/Elizabeth-Kyoko-Wada.jpg\" alt=\"\" width=\"600\" height=\"450\" sizes=\"(max-width: 1024px) 100vw, 1024px\" srcset=\"https://the-consortium.net/media/posts/14/responsive/Elizabeth-Kyoko-Wada-xs.jpg 300w ,https://the-consortium.net/media/posts/14/responsive/Elizabeth-Kyoko-Wada-sm.jpg 480w ,https://the-consortium.net/media/posts/14/responsive/Elizabeth-Kyoko-Wada-md.jpg 768w ,https://the-consortium.net/media/posts/14/responsive/Elizabeth-Kyoko-Wada-lg.jpg 1024w\"></figure></a></span></td>\n<td style=\"width: 43.4449%; height: 196px;\">\n<div><span style=\"font-size: 28.4px;\">Elizabeth Kyoko Wada</span></div>\n<div><span style=\"color: #3d464e;\"><span style=\"font-size: 18.4px;\"><a href=\"mailto:elwada@anhembi.br\">elwada@anhembi.br</a></span></span></div>\n<div> </div>\n<div><span style=\"font-size: 18.4px;\">Coordinator</span></div>\n<div><span style=\"font-size: 18.4px;\">Graduate Program </span><span style=\"font-size: 18.4px;\">in Hospitality </span></div>\n<div><span style=\"font-size: 18.4px;\">Universidade Anhembi Morumbi</span></div>\n</td>\n</tr>\n<tr style=\"height: 196px;\">\n<td style=\"width: 34.5537%; height: 196px;\"><span style=\"font-size: 18.4px;\"> <a href=\"https://the-consortium.net/media/files/CVCGS-Walanchalee-Wattanacharoensil.pdf\"><figure class=\"post__image\"><img loading=\"lazy\"  src=\"https://the-consortium.net/media/posts/14/Walanchalee-Wattanacharoensil.jpg\" alt=\"\" width=\"600\" height=\"720\" sizes=\"(max-width: 1024px) 100vw, 1024px\" srcset=\"https://the-consortium.net/media/posts/14/responsive/Walanchalee-Wattanacharoensil-xs.jpg 300w ,https://the-consortium.net/media/posts/14/responsive/Walanchalee-Wattanacharoensil-sm.jpg 480w ,https://the-consortium.net/media/posts/14/responsive/Walanchalee-Wattanacharoensil-md.jpg 768w ,https://the-consortium.net/media/posts/14/responsive/Walanchalee-Wattanacharoensil-lg.jpg 1024w\"></figure></a></span></td>\n<td style=\"width: 43.4449%; height: 196px;\">\n<div><span style=\"font-size: 28.4px;\">Walanchalee Wattanacharoensil</span></div>\n<div><span style=\"color: #3d464e;\"><span style=\"font-size: 18.4px;\"><a href=\"mailto:walanchale.wat@mahidol.ac.th\">walanchale.wat@mahidol.ac.th</a></span></span></div>\n<div> </div>\n<div><span style=\"font-size: 18.4px;\">Assistant Professor</span></div>\n<div><span style=\"font-size: 18.4px;\">Tourism and Hospitality Management Division</span></div>\n<div><span style=\"font-size: 18.4px;\">Mahidol University International College</span></div>\n</td>\n</tr>\n<tr style=\"height: 196px;\">\n<td style=\"width: 34.5537%; height: 196px;\"><span style=\"font-size: 18.4px;\"> <a href=\"https://the-consortium.net/media/files/CVCGS-Robert-Williams.pdf\"><figure class=\"post__image\"><img loading=\"lazy\"  src=\"https://the-consortium.net/media/posts/14/Robert-Williams-2.jpg\" alt=\"\" width=\"600\" height=\"706\" sizes=\"(max-width: 1024px) 100vw, 1024px\" srcset=\"https://the-consortium.net/media/posts/14/responsive/Robert-Williams-2-xs.jpg 300w ,https://the-consortium.net/media/posts/14/responsive/Robert-Williams-2-sm.jpg 480w ,https://the-consortium.net/media/posts/14/responsive/Robert-Williams-2-md.jpg 768w ,https://the-consortium.net/media/posts/14/responsive/Robert-Williams-2-lg.jpg 1024w\"></figure></a></span></td>\n<td style=\"width: 43.4449%; height: 196px;\">\n<div><span style=\"font-size: 28.4px;\">Robert Williams</span></div>\n<div><span style=\"color: #3d464e;\"><span style=\"font-size: 18.4px;\"><a href=\"mailto:robert.williams@uleth.ca\">robert.williams@uleth.ca</a></span></span></div>\n<div> </div>\n<div><span style=\"font-size: 18.4px;\">Professor</span></div>\n<div><span style=\"font-size: 18.4px;\">University of Lethbridge</span></div>\n<div><span style=\"font-size: 18.4px;\">Faculty of Health Sciences</span></div>\n</td>\n</tr>\n<tr style=\"height: 196px;\">\n<td style=\"width: 34.5537%; height: 196px;\"><span style=\"font-size: 18.4px;\"> <a href=\"https://the-consortium.net/media/files/CVCGS-Honggen-Xiao.pdf\"> <figure class=\"post__image\"><img loading=\"lazy\"  src=\"https://the-consortium.net/media/posts/14/Honggen-Xiao-2.jpg\" alt=\"\" width=\"600\" height=\"733\" sizes=\"(max-width: 1024px) 100vw, 1024px\" srcset=\"https://the-consortium.net/media/posts/14/responsive/Honggen-Xiao-2-xs.jpg 300w ,https://the-consortium.net/media/posts/14/responsive/Honggen-Xiao-2-sm.jpg 480w ,https://the-consortium.net/media/posts/14/responsive/Honggen-Xiao-2-md.jpg 768w ,https://the-consortium.net/media/posts/14/responsive/Honggen-Xiao-2-lg.jpg 1024w\"></figure></a></span></td>\n<td style=\"width: 43.4449%; height: 196px;\">\n<div><span style=\"font-size: 28.4px;\">Honggen Xiao</span></div>\n<div><span style=\"color: #3d464e;\"><span style=\"font-size: 18.4px;\"><a href=\"mailto:honggen.xiao@polyu.edu.hk\">honggen.xiao@polyu.edu.hk</a></span></span></div>\n<div> </div>\n<div><span style=\"font-size: 18.4px;\">Professor and </span><span style=\"font-size: 18.4px;\">Assistant Dean</span></div>\n<div><span style=\"font-size: 18.4px;\">School of Hotel and Tourism Management</span></div>\n<div><span style=\"font-size: 18.4px;\">The Hong Kong Polytechnic University</span></div>\n</td>\n</tr>\n<tr style=\"height: 50px;\">\n<td style=\"width: 34.5537%; height: 50px;\"><span style=\"font-size: 18.4px;\"> <a href=\"https://the-consortium.net/media/files/CVCGS-Weonsang-Yoo.pdf\"><figure class=\"post__image\"><img loading=\"lazy\"  src=\"https://the-consortium.net/media/posts/14/Weon-Sang-Yoo.jpg\" alt=\"\" width=\"600\" height=\"900\" sizes=\"(max-width: 1024px) 100vw, 1024px\" srcset=\"https://the-consortium.net/media/posts/14/responsive/Weon-Sang-Yoo-xs.jpg 300w ,https://the-consortium.net/media/posts/14/responsive/Weon-Sang-Yoo-sm.jpg 480w ,https://the-consortium.net/media/posts/14/responsive/Weon-Sang-Yoo-md.jpg 768w ,https://the-consortium.net/media/posts/14/responsive/Weon-Sang-Yoo-lg.jpg 1024w\"></figure></a></span></td>\n<td style=\"width: 43.4449%; height: 50px;\">\n<div><span style=\"font-size: 28.4px;\">Weon Sang Yoo</span></div>\n<div><span style=\"color: #3d464e;\"><a href=\"mailto:wyoo@korea.ac.kr\">wyoo@korea.ac.kr</a></span></div>\n<div> </div>\n<div>Professor</div>\n<div>Korea University</div>\n<div>Business School</div>\n</td>\n</tr>\n</tbody>\n</table>",
            "author": {
                "name": "pp"
            },
            "tags": [
            ],
            "date_published": "2022-01-04T04:08:11-06:00",
            "date_modified": "2023-12-07T01:23:32-06:00"
        },
        {
            "id": "https://the-consortium.net/advisors.html",
            "url": "https://the-consortium.net/advisors.html",
            "title": "Advisors",
            "summary": "John Bowen, Ph. D. Professor Emeritus University of Houston Conrad N. Hilton College of Hotel and Restaurant Management jbowen@uh.edu Download CV (.pdf) Dean and Walter &amp; Wendy Kwok Family Foundation&hellip;",
            "content_html": "<table style=\"border-collapse: collapse; width: 101.116%; height: 2048px;\" border=\"0\">\n<tbody>\n<tr>\n<td style=\"width: 50%; vertical-align: top;\"><a href=\"https://the-consortium.net/media/files/CVCGS-John-Bowen.pdf\"><figure class=\"post__image post__image--left\"><img loading=\"lazy\"  src=\"https://the-consortium.net/media/posts/12/John-Bowen-2.jpg\" alt=\"\" width=\"800\" height=\"1000\" sizes=\"(max-width: 1024px) 100vw, 1024px\" srcset=\"https://the-consortium.net/media/posts/12/responsive/John-Bowen-2-xs.jpg 300w ,https://the-consortium.net/media/posts/12/responsive/John-Bowen-2-sm.jpg 480w ,https://the-consortium.net/media/posts/12/responsive/John-Bowen-2-md.jpg 768w ,https://the-consortium.net/media/posts/12/responsive/John-Bowen-2-lg.jpg 1024w\"></figure></a></td>\n<td style=\"width: 50%; vertical-align: top;\">\n<h2>John Bowen, Ph. D.</h2>\n<p>Professor Emeritus<br>University of Houston<br><span style=\"color: var(--text-editor-body-color); font-family: var(--font-base); font-size: inherit; font-weight: var(--font-weight-normal);\">Conrad N. Hilton College of <br>Hotel and Restaurant Management</span></p>\n<p><a href=\"mailto:jbowen@uh.edu\">jbowen@uh.edu</a><br><a href=\"https://the-consortium.net/media/files/CVCGS-John-Bowen.pdf\" download>Download CV (.pdf)</a></p>\n</td>\n</tr>\n<tr>\n<td style=\"width: 50%; vertical-align: top;\"><a href=\"https://the-consortium.net/media/files/CVCGS-Kaye-Chon.pdf\"><figure class=\"post__image post__image--left\"><img loading=\"lazy\"  src=\"https://the-consortium.net/media/posts/12/Kaye-Chon-2.jpg\" alt=\"\" width=\"800\" height=\"1281\" sizes=\"(max-width: 1024px) 100vw, 1024px\" srcset=\"https://the-consortium.net/media/posts/12/responsive/Kaye-Chon-2-xs.jpg 300w ,https://the-consortium.net/media/posts/12/responsive/Kaye-Chon-2-sm.jpg 480w ,https://the-consortium.net/media/posts/12/responsive/Kaye-Chon-2-md.jpg 768w ,https://the-consortium.net/media/posts/12/responsive/Kaye-Chon-2-lg.jpg 1024w\"></figure></a></td>\n<td style=\"width: 50%; vertical-align: top;\">\n<h2>Kaye Chon, Ph. D., CHE</h2>\n<p>Dean and <br>Walter &amp; Wendy Kwok Family<br>Foundation Professor<br>The Hong Kong Polytechnic University </p>\n<p><a href=\"mailto:kaye.chon@polyu.edu.hk\">kaye.chon@polyu.edu.hk</a><br><a href=\"https://the-consortium.net/media/files/CVCGS-Kaye-Chon.pdf\">Download CV (.pdf)</a></p>\n</td>\n</tr>\n<tr>\n<td style=\"width: 50%; vertical-align: top;\"><figure class=\"post__image post__image--left\"><img loading=\"lazy\"  src=\"https://the-consortium.net/media/posts/12/Ramu-Damodaran.jpeg\" alt=\"\" width=\"800\" height=\"800\" sizes=\"(max-width: 1024px) 100vw, 1024px\" srcset=\"https://the-consortium.net/media/posts/12/responsive/Ramu-Damodaran-xs.jpeg 300w ,https://the-consortium.net/media/posts/12/responsive/Ramu-Damodaran-sm.jpeg 480w ,https://the-consortium.net/media/posts/12/responsive/Ramu-Damodaran-md.jpeg 768w ,https://the-consortium.net/media/posts/12/responsive/Ramu-Damodaran-lg.jpeg 1024w\"></figure></td>\n<td style=\"width: 50%; vertical-align: top;\">\n<h2>Ramu Damodaran</h2>\n<p>University for Peace<br>San Jose, Costa Rica</p>\n<p><a href=\"mailto:rdamodaran@upeace.org\">rdamodaran@upeace.org</a></p>\n</td>\n</tr>\n<tr>\n<td style=\"width: 50%; vertical-align: top;\"><a href=\"https://the-consortium.net/media/files/CVCGS-Carol-Shanklin.pdf\"><figure class=\"post__image post__image--left\"><img loading=\"lazy\"  style=\"outline: 3px solid rgba(var(--primary-color-rgb), 0.55)  !important;\" src=\"https://the-consortium.net/media/posts/12/Carol-Shanklin-2.jpg\" alt=\"\" width=\"800\" height=\"1203\" sizes=\"(max-width: 1024px) 100vw, 1024px\" srcset=\"https://the-consortium.net/media/posts/12/responsive/Carol-Shanklin-2-xs.jpg 300w ,https://the-consortium.net/media/posts/12/responsive/Carol-Shanklin-2-sm.jpg 480w ,https://the-consortium.net/media/posts/12/responsive/Carol-Shanklin-2-md.jpg 768w ,https://the-consortium.net/media/posts/12/responsive/Carol-Shanklin-2-lg.jpg 1024w\"></figure></a></td>\n<td style=\"width: 50%; vertical-align: top;\">\n<h2>Carol Shanklin, Ph. D., RD</h2>\n<p>Dean and Professor Emeritus<br>Kansas State University</p>\n<p><a href=\"mailto:shanklin@ksu.edu\">shanklin@ksu.edu</a><br><a href=\"https://the-consortium.net/media/files/CVCGS-Carol-Shanklin.pdf\" download>Download CV (.pdf)</a></p>\n</td>\n</tr>\n</tbody>\n</table>\n<p> </p>\n<p> </p>\n<p> </p>\n<p> </p>\n<p> </p>\n<p> </p>",
            "author": {
                "name": "pp"
            },
            "tags": [
            ],
            "date_published": "2021-12-30T23:53:33-06:00",
            "date_modified": "2023-12-07T01:13:56-06:00"
        },
        {
            "id": "https://the-consortium.net/news.html",
            "url": "https://the-consortium.net/news.html",
            "title": "News",
            "summary": "Will be updated shortly ...",
            "content_html": "<h4 class=\"align-center\">Will be updated shortly ...</h4>",
            "author": {
                "name": "pp"
            },
            "tags": [
            ],
            "date_published": "2021-12-29T23:34:49-06:00",
            "date_modified": "2021-12-30T23:00:51-06:00"
        },
        {
            "id": "https://the-consortium.net/contact-us.html",
            "url": "https://the-consortium.net/contact-us.html",
            "title": "Contact Us",
            "summary": "Loading…",
            "content_html": "<div class=\"post__iframe\"><iframe loading=\"lazy\" width=\"640\" height=\"709\" src=\"https://docs.google.com/forms/d/e/1FAIpQLSee6cf_IWR-RdwdL_FDLaxce-QAX5-Ilq67CU9oJV_rTRPWCw/viewform?embedded=true\" frameborder=\"0\" marginheight=\"0\" marginwidth=\"0\">Loading…</iframe></div>",
            "author": {
                "name": "pp"
            },
            "tags": [
            ],
            "date_published": "2021-12-29T23:30:47-06:00",
            "date_modified": "2022-01-14T13:44:47-06:00"
        }
    ]
}
